<?xml version="1.0" encoding="utf-8"?>
<!-- Generator: Adobe Illustrator 16.0.0, SVG Export Plug-In . SVG Version: 6.00 Build 0)  -->
<!DOCTYPE svg PUBLIC "-//W3C//DTD SVG 1.1//EN" "http://www.w3.org/Graphics/SVG/1.1/DTD/svg11.dtd">
<svg version="1.1" id="Layer_1" xmlns="http://www.w3.org/2000/svg" xmlns:xlink="http://www.w3.org/1999/xlink" x="0px" y="0px"
	 width="717.666px" height="125.667px" viewBox="0 0 717.666 125.667" enable-background="new 0 0 717.666 125.667"
	 xml:space="preserve">
<path id="XMLID_57_" fill="#1A1A1A" d="M348.96-264.351c-0.491,0.343-2.111,0.343-2.798,0.392c-0.688,0.049-0.796,1.815-0.648,2.257
	c0.146,0.441,1.197,0.51,2.198,0.51c1.025,0,9.986,0,9.986,0s0.099-1.49,0.05-2.128c-0.05-0.639-0.344-2.013-0.344-2.013
	s0.688-0.933,1.129-1.865s0.147-4.075,0.049-4.909c-0.098-0.835-0.245-1.473-0.146-2.062c0.098-0.589-0.05-1.62-0.246-2.16
	c-0.196-0.54-0.246-1.571-0.344-3.191s0-2.651,0-2.651c0.344-1.718,0.491-3.535,0.59-3.731c0.098-0.196,0.195-0.638,0.834-1.669
	c0.638-1.031,2.013-5.4,2.111-6.087c0.098-0.687,0-1.669,0-1.669c0.146-0.884,1.276-5.106,1.424-5.057
	c0.146,0.049,0.195,0.344,1.521,4.369c1.325,4.025,2.209,12.028,2.454,13.5c0.246,1.473,1.277,9.769,1.424,10.31
	c0.147,0.54,1.424,6.774,1.768,7.51c0.344,0.736,0.688,1.669,0.688,1.669c-0.884,0.982-0.196,1.62-0.196,1.62
	c0.441,0.246,4.909,0.294,6.48,0.294c1.57,0,5.399-0.098,5.694-0.246c0.294-0.147,0.539-0.736,0-1.325
	c-0.54-0.589-1.719-0.589-2.504-0.638c-0.785-0.049-2.553-1.768-2.749-2.161c-0.196-0.393-0.639-0.932-0.737-1.276
	c-0.098-0.344,0.345-0.981,0.197-1.571c-0.147-0.589-0.295-0.736-0.295-1.963c0-1.228-0.54-4.468-0.491-5.449
	c0.05-0.982-0.441-5.45-0.589-6.628s-0.883-3.878-0.785-4.516s-0.098-4.026-0.196-5.007c-0.099-0.982-0.393-5.155-0.441-6.333
	c-0.023-0.543-0.077-1.442-0.129-2.253c0.085,0.054,0.193,0.063,0.254,0.063c0.098,0,0.467-0.025,1.254-0.394
	c0.786-0.369,1.794-1.327,1.942-1.622c0.147-0.295,0.393-1.574,0.368-1.942c-0.024-0.369,0.024-0.565,0.05-0.91
	c0.012-0.178-0.048-0.455-0.108-0.681c0.036-0.019,0.072-0.036,0.108-0.057l-0.003-0.04c0.143-0.052,0.226-0.113,0.239-0.167
	c0.169-0.674,0.344-5.105,0.295-7.855c-0.049-2.749-0.441-5.007-0.688-6.774c-0.245-1.767-0.933-9.18-1.228-10.358
	c-0.294-1.178-0.688-2.553-0.638-3.486c0.049-0.933-0.393-1.571-0.393-1.571c-0.394-0.246-1.031-0.736-1.571-0.981
	c-0.54-0.246-3.093-1.964-3.24-1.964c-0.146,0-1.178-0.393-1.718-0.541c-0.54-0.147-1.179-1.276-1.179-1.276
	s-0.209-0.196-0.393-0.233c-0.185-0.037-0.368-0.699-0.368-0.699s-0.319-1.081,0.196-1.596c0.516-0.516,0.516-0.663,0.614-0.663
	c0.098,0,0.171,0.319,0.417,0.368c0.245,0.049,0.662-0.589,0.711-0.981c0.05-0.393,0.099-0.663,0.099-0.761s-0.172-0.172-0.27-0.221
	c-0.099-0.049-0.049-0.343,0.073-0.515c0.123-0.172,0.639-1.743,0.49-3.314c-0.146-1.571-1.57-2.553-3.116-2.97
	c-1.547-0.417-4.32,1.007-4.688,2.798s-0.368,1.792-0.368,1.792s-0.172-0.147-0.467,0.049c-0.294,0.197-0.393,0.737-0.367,1.056
	c0.023,0.319-0.197,1.203,0.858,1.031c0,0,0,1.031,0.024,1.865c0.013,0.433-0.039,0.693,0.016,0.899
	c-0.065,0.013-0.138,0.026-0.209,0.042c-0.064,0.007-0.124,0.021-0.179,0.039c-0.02,0.005-0.039,0.009-0.058,0.014
	c-0.044,0.01-0.079,0.032-0.108,0.059c-0.391,0.228-0.504,0.69-0.615,0.616c-0.147-0.098-1.13-0.736-1.964-1.08
	c-0.835-0.344-2.062-0.834-2.062-1.325s0.049-1.08,0.147-1.522c0.098-0.442,0.195-1.276,0.245-1.964
	c0.049-0.688,0.981-3.486,1.473-4.467c0.49-0.982,1.191-2.828,1.191-2.828c0.165-0.125,0.702-0.993,0.702-0.993
	s0.08-0.672-0.507-1.242c0.029-0.033,0.059-0.064,0.086-0.092c0.393-0.393,1.62-0.785,1.964-0.981
	c0.344-0.197,1.374-1.375,1.374-1.375c0.147-1.08,0.393-1.424,0.639-1.816c0.245-0.393,0.441-0.736-0.05-0.982
	s-1.128,0.589-1.128,0.589c-0.049-0.736,0.049-2.308,0.294-3.682s-0.441-1.276-0.441-1.276c-0.493-0.068-0.639,2.651-0.639,2.651
	s0.05,0.246-0.393,0.246s-0.774,0.655-0.971,0.655s-0.404-0.065-0.649-0.065s-0.639,0.294-0.639,0.294
	c-0.638,0.049-0.981,0.246-1.227,0.638c-0.246,0.393-0.295,2.504-0.541,3.043c-0.094,0.208-0.254,0.488-0.414,0.754
	c-0.178,0.004-0.347,0.047-0.501,0.14c-0.25,0.15-0.538,0.624-0.747,1.02c-0.154,0.176-0.716,0.809-1.136,1.229
	c-0.49,0.491-2.994,5.351-3.19,6.038c-0.196,0.688-0.835,1.719-0.835,2.406c0,0.687-0.884,2.209-0.835,2.749
	c0.05,0.54,0.394,1.571,0.492,2.013c0.098,0.441,0.294,1.227,0.589,3.24c0.294,2.013,2.355,5.204,2.602,6.235
	c0.245,1.031,1.178,1.571,0.884,3.044c-0.737,3.338-6.923,18.802-6.923,18.802l0.688,0.147c0.884,1.081,3.878,2.16,3.878,2.455
	c0,0.294,0.295,1.08,0.295,1.08c-0.295,2.945,0.196,10.8,0.344,13.746s-1.08,10.653-1.228,16.053
	c-0.146,5.4,0.786,10.31,0.736,10.457c-0.049,0.147,0,0.197-0.393,0.147c-0.393-0.048-0.49,0.394-0.933,0.835
	c-0.442,0.442-0.196,1.571-0.196,2.062C350.04-264.792,349.451-264.694,348.96-264.351z M374.491-302.676
	c0.172-0.344,0.172-0.86,0.172-1.524c0-0.664,0.099-0.443,0.099-0.443c0.345,0.467,0.418,2.041,0.246,2.336
	c-0.173,0.295-0.492,0.737-0.86,0.934c-0.13,0.069-0.215,0.157-0.271,0.249c-0.042-0.646-0.075-1.126-0.075-1.126
	c0.012-0.006,0.022-0.013,0.033-0.022c0.021,0.076,0.044,0.129,0.067,0.162C374.002-301.97,374.319-302.332,374.491-302.676z
	 M373.212-318.549c-0.05,0.294-0.05,1.473-0.05,2.013c0,0.54,0.442,2.602,0.688,4.075c0.246,1.473-0.195,4.664-0.245,5.155
	c-0.018,0.174,0.017,0.311,0.136,0.435l-0.036,0.213c0,0,0.019,0.019,0.053,0.051c-0.019,0.169-0.038,0.341-0.077,0.465
	c-0.009,0.031-0.018,0.068-0.026,0.108c-0.203-1.58-0.393-3.22-0.393-3.728c0-0.933-0.196-2.062-0.441-3.191
	c-0.172-0.79-0.247-1.842-0.243-2.756C372.62-316.653,372.777-317.75,373.212-318.549z"/>
<path id="XMLID_53_" fill="#1A1A1A" d="M382.07-351.568c0.098,0.294,0.147,1.031,0.147,1.326s-0.05,0.883-0.05,1.08
	s0.246,0.835,0.442,1.129c0.196,0.295,0.343,1.227,0.441,1.718c0.099,0.491,0.737,3.928,2.013,6.578c0,0,0.245,0.933,0.491,1.473
	c0,0,0.491,2.798,0.688,3.387c0.042,0.126,0.129,0.326,0.242,0.567c-0.029,0.07-0.057,0.143-0.083,0.218
	c-0.834,2.406-0.344,2.7-0.049,2.798s2.308,1.277,2.308,1.277s0.54,2.602,0.491,3.927c-0.05,1.326,0.441,1.571,0.393,2.111
	c-0.044,0.481-0.049,4.47,0.09,5.679c0.002,0.108,0.002,0.197-0.004,0.261c-0.027,0.27,0.271,0.612,0.545,0.867
	c0.183,0.267,0.351,0.509,0.399,0.655c0.012,0.034,0.086,0.055,0.204,0.066c-0.111,0.049-0.167,0.081-0.167,0.081l0.066,0.337
	c0.056,0.308,0.13,0.749,0.13,0.989c0,0.393-0.688,0.687-0.933,1.571s-1.473,3.387-0.834,11.291
	c0.638,7.904,1.619,13.403,2.355,18.066c0.736,4.664,1.62,8.788,1.816,9.376c0.061,0.181,0.093,0.62,0.107,1.162
	c-0.007,0.208-0.003,0.447,0.01,0.711c0.004,1.11-0.04,2.353-0.068,2.742c-0.049,0.688-1.178,4.124-1.325,4.615
	c-0.147,0.491,0.246,1.375,0.147,1.718s-0.245,2.651-0.245,2.651l2.062-0.049c0,0-0.098-0.246-0.049-0.933
	c0.049-0.688,0-1.179,0.344-1.179s1.228,0.834,1.178,1.081c-0.049,0.245,0.099,1.129,0.099,1.129l4.369,0.049
	c0,0,1.374,0.049,2.013-0.098c0.638-0.147,0.099-0.884,0.099-0.884c-0.394-0.196-2.063-0.688-2.259-1.031
	c-0.196-0.343-0.393-2.651-0.442-3.093c-0.049-0.441,0.05-1.62,0-2.749c-0.049-1.129-0.393-3.437-0.393-3.437
	c0.491-1.326,0.541-3.338,0.59-4.173s1.276-6.284,1.423-7.266c0.148-0.982,0.639-2.111,1.228-4.124
	c0.59-2.013,0.639-7.314,1.669-10.751c1.031-3.436,0.835-7.56,0.688-9.769c-0.013-0.196-0.036-0.399-0.067-0.605
	c0.238-0.001,0.328,0.057,0.436-0.094c0.123-0.171,0.295-0.589,0.491-0.786c0.196-0.196,0.319-0.343,0.441-0.516
	c0.123-0.171,0.147-0.564,0.295-0.736s0.908-1.375,1.228-1.89c0.319-0.515,1.62-2.602,1.521-4.418
	c-0.098-1.806-1.335-4.362-1.663-4.996c0.31-0.208,0.544-0.505,0.669-0.589c0.147-0.098-1.423-2.455-1.473-2.994
	c-0.049-0.541-0.491-2.995-1.08-3.928s-1.227-1.178-1.815-1.571c-0.59-0.393-2.21-1.031-2.651-1.522
	c-0.442-0.491-0.982-0.786-1.13-1.129c-0.127-0.296-0.474-0.556-0.66-0.685c0.2-0.57,0.517-2.54,0.747-3.046
	c0.245-0.54,0.343-0.933,0.539-1.276c0.196-0.343,0.786-0.54,1.08-0.785c0.295-0.246,0.786-1.424,0.786-1.817
	c0-0.392-0.639-0.736-0.639-0.736c0.196-0.638,0.884-1.08-0.098-2.946c-0.982-1.866-2.75-2.308-5.008-2.111
	c-2.258,0.196-2.455,4.173-2.455,4.369s-0.196,0.786-0.196,0.786c-0.294,0.196-0.147,0.883-0.098,1.129
	c0.049,0.245,0.245,0.884,0.245,1.178s0.196,0.196,0.196,0.344s0.639,0.884,0.785,1.227c0.096,0.223,0.047,1.432,0.001,2.258
	c-0.029,0-0.059,0-0.087,0c0,0-0.785-0.098-1.178,0.049s-0.883,1.129-0.883,1.129s-0.737,0.098-0.737-0.098
	s-0.589-0.491-0.589-0.491l-1.08,0.196c0,0-0.196-0.54-0.441-0.688c-0.041-0.024-0.142-0.048-0.285-0.061
	c-0.293-0.613-1.026-2.176-1.299-3.032c-0.344-1.08-1.08-1.718-1.325-2.504c-0.245-0.785-2.013-6.136-2.16-7.167
	c0,0,0.393-0.736,0.785-1.473s0.147-1.522,0-2.062l0.197-0.737c0,0-0.119-0.311-0.639-0.098c0,0-0.561-1.092-0.912-2.775
	c-0.162-0.776-0.021-1.349-0.61-1.3c-0.195,0.017,0.041,2.355,0.385,3.436c0,0,0.115,0.129-0.327,0.276
	c-0.441,0.147-0.695,0.363-0.646,0.756c0,0-0.54,0.049-0.49,0.246c0.049,0.196,0.098,0.49-0.099,0.589
	C382.267-352.01,381.973-351.863,382.07-351.568z M405.132-322.294c0.011,0.001,0.021,0.003,0.033,0.005
	c-0.013,0.004-0.025,0.007-0.036,0.014C405.13-322.282,405.131-322.289,405.132-322.294z M402.946-315.829
	c0.148-0.147,0.246-0.589,0.442-0.786c0.196-0.196,0.393-1.031,0.393-1.276c0-0.245-0.393-0.981-0.343-1.669
	c0.049-0.688,0.146-1.669,0.343-2.013c0.102-0.177,0.15-0.21,0.222-0.215c0.143,0.25,0.656,1.149,0.846,1.381
	c0.222,0.27,0.934,1.718,0.908,2.479c-0.024,0.761,0.074,1.104-0.221,1.988c-0.294,0.884-0.761,2.676-0.981,3.289
	c0,0-0.172,0.368-0.295,0.27s-0.449-0.517-0.516-0.589c-0.147-0.16-0.196-0.43-0.196-0.43s-0.319-0.564-0.54-0.539
	c-0.024,0.002-0.05,0.004-0.076,0.005c-0.004-0.32-0.015-0.788-0.047-0.914c-0.049-0.196,0.099-0.589-0.245-0.834
	c-0.001-0.001-0.003-0.002-0.005-0.003C402.77-315.699,402.866-315.749,402.946-315.829z"/>
<path id="XMLID_48_" fill="#212121" d="M416.455-346.102c-0.11,0.129-1.107,0.997-1.16,1.086c-0.202,0.343-0.239,0.687-0.337,0.933
	c-0.099,0.246-0.835,0.786-0.933,1.228c-0.099,0.441-0.491,1.178-0.786,2.749s0.245,2.356,0.54,2.7
	c0.295,0.343,0.688,1.473,1.031,1.964c0.344,0.491,1.963,1.178,1.963,1.178c0.394,0.933,1.081,1.521,1.081,1.521
	c0.294,1.915,0.981,2.504,1.03,3.29s-1.325,5.597-1.915,7.167c-0.589,1.57-0.932,3.534-1.473,5.302
	c-0.539,1.768-1.914,5.449-1.57,6.137s2.896,2.848,2.896,2.848c-0.05,0.834,0.344,1.473,0.589,1.276
	c0.229-0.184,0.33-0.712,0.464-0.859c0.063-0.007,0.121-0.014,0.169-0.018c0.096,0.064,0.186,0.237,0.251,0.435
	c0.098,0.295,0,1.276-0.344,3.29c-0.344,2.013-0.393,8.886-0.344,9.819c0.049,0.933-0.049,5.841-0.098,6.921
	c-0.05,1.08-0.442,7.315-0.688,8.591c-0.246,1.276-0.589,9.229-0.54,10.211c0.049,0.981,0.393,1.325,0.441,2.111
	s0.344,1.768,0.393,2.455c0.05,0.688-0.049,1.326-0.196,1.571c-0.147,0.246,0.295,1.031,0.295,1.031s4.271,0,4.468,0.049
	c0.196,0.049,1.03,0,1.275-0.491c0.246-0.491-0.146-1.08-0.343-1.375c-0.196-0.294,0.049-0.393,0.196-0.932
	c0.146-0.54,0.638-2.062,0.638-2.75s0.786-2.553,0.639-3.289c-0.147-0.736-1.08-1.473-1.08-2.111c0-0.639-0.491-1.621-0.147-2.749
	c0.344-1.129,1.08-4.615,1.228-5.106s0.245-1.326,0.196-2.013c-0.049-0.688,0.393-1.031,0.441-1.326
	c0.049-0.294-0.098-0.589-0.098-0.933s0.196-0.786,0.393-1.228s0.54-0.883,0.491-1.375c-0.049-0.491,0.441-2.896,0.638-3.583
	c0.196-0.688,1.08-5.057,1.276-5.597c0.197-0.54,0.54-1.718,0.688-1.768c0.037,0.008,0.108,0.208,0.194,0.521
	c0.182,0.732,0.422,2.056,0.591,2.769c0.134,0.561,0.137,1.048,0.175,1.566c0.002,0.029,0.004,0.059,0.007,0.089
	c0.033,0.409,0.094,0.838,0.261,1.34c0.017,0.071,0.039,0.14,0.063,0.208c0.362,1.31,0.638,4.243,0.87,5.683
	c0.075,0.465,0.169,1.069,0.259,1.724c0.116,1.06,0.226,2.067,0.309,2.84c0.036,0.544,0.048,1.038,0.021,1.425
	c-0.098,1.473-0.393,6.039-0.393,7.217s0.442,1.129,0.393,2.062c-0.049,0.933-0.933,4.418-0.933,4.958
	c0,0.541,0.688,1.62,0.54,2.013c-0.147,0.393,0,2.013,0,2.013c0.441,0.197,8.002,0.122,8.395,0.122c0.394,0,0.737-0.416,0.934-0.71
	c0.196-0.295-0.049-0.393-0.147-0.737s-0.54-0.834-0.982-0.932c-0.441-0.099-1.08-0.393-1.325-0.59
	c-0.246-0.196-0.442-0.54-0.393-0.834c0.049-0.294,0.441-0.785,0.638-0.981c0.176-0.175,0.624-0.468,0.719-0.704
	c0.024-0.013,0.034-0.04,0.019-0.082c0-0.101-0.043-0.22-0.095-0.344c-0.077-0.285-0.192-0.71-0.339-1.163
	c-0.078-0.312-0.174-0.657-0.254-0.899c-0.147-0.442,0.146-1.522,0.146-1.816c0-0.295,0.639-2.946,0.639-3.535
	c0-0.589-0.147-4.271-0.147-4.811c0-0.458-0.07-2.255-0.151-3.121c0.099-0.016,0.323-0.192,0.323-0.192s1.768,0.074,1.841,0.049
	c0.074-0.025,0.147,0.27,0.246,0.294c0.098,0.024,0.417-0.294,0.417-0.294l2.823-1.669l0.294-0.343c0,0,0.516-15.17,0.54-15.514
	s-0.344-0.54-0.589-0.564s-2.283-0.123-2.283-0.123s-0.002-0.064-0.007-0.162c0.384-0.289,0.287-0.512,0.425-0.672
	c0.147-0.172,0.318-0.442,0.49-0.663s0.05-0.688,0.099-0.859c0.048-0.167-0.206-1.541-0.265-1.75l0.164-0.032l0.017-0.612
	c0,0-0.078,0.031-0.232,0.076c0.327-0.187,0.464-0.358,0.464-0.358s-0.246-2.16-0.246-3.142c0-0.981-0.196-2.454-0.344-2.945
	c-0.146-0.491-0.196-2.799-0.245-3.338c-0.05-0.54-0.394-1.081-0.442-1.817c-0.048-0.736-0.196-3.24-0.393-3.731
	s-0.245-1.031-0.393-2.7c-0.147-1.669-0.245-3.829-0.441-4.173c-0.196-0.343-0.245-3.338-0.589-3.829s-0.196-1.866-0.295-2.602
	c-0.098-0.736-0.166-2.099-0.166-2.099c-0.147-2.319-1.049-2.117-1.271-2.282c-0.221-0.166-0.404-0.239-0.938-0.516
	c-0.533-0.276-2.19-1.104-2.596-1.307c-0.405-0.203-1.749-0.811-1.934-0.848c-0.184-0.036-0.81-0.625-0.956-0.699
	c-0.147-0.074-0.405-0.184-0.848-0.829c-0.013-0.019-0.028-0.035-0.043-0.053c-0.009-0.038-0.019-0.071-0.03-0.101
	c0.056-0.235,0.222-0.929,0.313-1.171c0.11-0.295-0.073-0.479,0.037-0.516s0.404,0.11,0.553-0.294
	c0.146-0.405,0.736-2.062,0.552-2.467c0,0-0.147-0.258-0.59-0.037c0,0,0.295-0.368,0.369-1.509c0.073-1.142-0.442-4.124-3.683-4.234
	c-1.399-0.048-3.424,0.515-4.233,2.43c0,0-0.442,2.062,0.146,3.093c0,0-0.146,0.037-0.331-0.037
	c-0.184-0.073-0.368,0.037-0.331,0.773s0.147,1.289,0.405,1.693c0.257,0.405,0.441,0.442,0.441,0.442s0.11,0.663,0.258,0.921
	c0.117,0.205,0.117,0.453,0.113,0.548c-0.344,0.311-0.629,0.686-0.629,0.686c-0.184,0.184-0.626,0.368-0.772,0.405
	c-0.148,0.037-0.24-0.11-0.313-0.258c-0.074-0.147-0.258-0.294-0.424-0.294s-0.699-0.093-1.086-0.129s-2.172-0.294-2.301-0.313
	c-0.129-0.018-0.111,0-0.111-0.11s0.037-0.129,0.056-0.35c0.019-0.221,0.185-0.313,0.276-0.46c0.079-0.127,0.158-0.2,0.214-0.466
	l0.099-0.16c0.027-0.073,0.037-0.149,0.034-0.226c0.002,0.003,0.003,0.005,0.003,0.005s0,0,0.258-0.092
	c0.258-0.092,0.553-0.294,0.791-0.441c0.24-0.147,0.442-0.479,0.516-0.626c0.074-0.147-0.019-0.534-0.221-0.553
	s-0.368-0.019-0.387-0.166c-0.018-0.147,0.129-0.773,0.129-1.031s-0.056-1.049-0.073-1.124c-0.019-0.073,0.239-0.239,0.331-0.405
	c0.092-0.166-0.055-0.294-0.221-0.313c-0.166-0.019-0.626,0.202-0.736,0.276s-0.184,0.718-0.313,0.755
	c-0.129,0.037-0.57-0.203-0.736-0.221c-0.165-0.018-0.331,0.35-0.479,0.368s-0.258-0.129-0.479-0.11s-0.423,0.405-0.553,0.424
	c-0.129,0.018-0.368-0.092-0.625,0.257c-0.258,0.35-0.222,1.344-0.222,1.344c0.009-0.002,0.016-0.004,0.024-0.006
	c-0.027,0.055-0.024,0.098-0.024,0.098s0.024-0.018,0.094-0.033C416.63-346.37,416.548-346.21,416.455-346.102z M440.167-302.525
	c0,0,0.098-0.025,0.122,0.171c0,0.003,0,0.006,0,0.009c-0.056,0.013-0.102,0.023-0.132,0.03
	C440.162-302.385,440.166-302.455,440.167-302.525z M438.375-308.098c0.147,0.491,0.344,1.424,0.441,1.768
	c0.099,0.344,0.246,1.228,0.246,1.228s0.004,0.001,0.009,0.003c-0.006,0.04-0.082,0.523-0.058,0.782
	c0.023,0.27-0.074,1.08,0.073,1.497s-0.147,1.375-0.196,1.792c-0.049,0.417-0.344,0.933-0.099,1.08c0.245,0.147,0.565,0,0.737-0.147
	c0.021-0.019,0.05-0.057,0.08-0.109c0.002,0.085,0.008,0.168,0.018,0.232c0.024,0.171,0.344,0.417,0.344,0.417
	s-0.099,0.025-0.295,0.147c-0.132,0.083-0.761,0.915-1.159,1.455c-0.045-0.491-0.202-1.17-0.24-1.553
	c-0.049-0.491-0.049-2.896-0.049-2.896s-0.049-1.031-0.099-2.258c-0.049-1.227-0.146-4.124-0.146-4.124
	S438.228-308.588,438.375-308.098z M430.628-343.017c-0.03-0.034-0.053-0.047-0.053-0.047c-0.037-0.047-0.081-0.092-0.131-0.136
	C430.525-343.139,430.586-343.078,430.628-343.017z"/>
<g opacity="0.3">
	<path id="XMLID_641_" fill="#442F7C" d="M6.845,37.081c0.261,1.832,0.086,2.836,0.655,4.886c0.565,2.051,0.915,4.624,1.352,7.067
		c0.436,2.441,0.828,3.053,0.785,6.019c-0.001,0.147-0.004,0.29-0.008,0.431c-0.051,0.526-0.109,0.991-0.124,1.519
		c-0.021,0.869-0.002,1.476,0.023,1.957c-0.037,1.042-0.066,2.046-0.066,3.248c0,2.53,0.567,6.763,0.611,7.547l0.771,0.275
		c0,0,0.116,0.64,0.232,1.105c0.117,0.465,0.233,1.046,0.465,1.978c0.233,0.93,0.698,1.047,0.582,4.537
		c-0.116,3.488,0.233,6.048,0.233,6.048c-0.257,0.31-0.443,0.639-0.574,0.972c-0.269,0.517-0.531,1.134-0.531,1.588
		c0,0.93,0.641,4.013,0.523,4.652s-1.104,4.944-1.163,6.281c-0.059,1.338,0,8.143,0.117,10.818c0.116,2.675,0,4.594,0.522,5.467
		c0.523,0.873,1.28,0.99,1.164,1.745c-0.117,0.757-0.292,0.582-0.466,1.745c-0.174,1.162,0.466,0.756,0,1.396
		c-0.466,0.64-0.873,1.221-0.522,1.569c0.348,0.35,0.638,0.581,0.406,1.048c-0.233,0.465-0.64,0.813-0.64,0.813l-0.059,1.338h4.304
		l-0.116-0.406c0,0,0.814,0.64,1.803,0.64s11.109,0,11.109,0s1.512,0.231,3.142-0.64c0,0,0.174-0.523-0.118-0.698
		c-0.29-0.175-0.639-0.988-0.639-0.988l-0.465,0.057c0,0-0.407-0.696-0.93-0.641c-0.523,0.059-3.724,0.292-4.537-0.464
		c-0.815-0.757-0.174-0.93-0.523-1.047c-0.349-0.116-0.873,0-0.873-0.465c0-0.467-0.117-0.523,0-1.222
		c0.116-0.698-0.292-0.873,0-1.454c0.29-0.582,0.406,0.116,0.639-1.57c0.233-1.687-0.582-5.759-0.639-7.91
		c-0.059-2.151,0.057-7.038,0.29-9.016c0.233-1.977,1.512-5.351,2.675-14.307c0,0,1.047-0.582,1.861-8.899
		c2.675-1.047,3.956-3.49,3.432-7.502c-0.523-4.015-0.233-6.397-1.106-10.412c0,0,2.966-1.699,4.541-1.992
		c0.648-0.024,1.367-0.021,1.805-0.017c0.327,0.017,0.46,0.031,0.46,0.031s1.847,0.519,2.205-4.542
		c0.862-0.371,1.799-0.709,2.04-0.809c0.349-0.145,0.437,0,0.757-0.117c0.32-0.115,0.378-0.29,0.553-0.406
		c0.173-0.115,0.378-0.057,0.553-0.348c0.175-0.293,0.814-0.786,1.162-1.164c0.35-0.377,0.611-0.494,0.786-0.814
		c0.015-0.027,0.032-0.055,0.047-0.079c1.629-0.264,2.842-0.46,2.977-0.474c0,0,0.305-0.131,0.348-0.653
		c0.044-0.523,0.611-9.814,0.611-9.814s-0.261-0.176-0.611-0.131c-0.175,0.021-3.677,0.537-7.123,1.046
		c-0.195-0.254-0.529-0.487-1.165-0.828c-1.134-0.612-1.73-1.435-3.489-1.309c-1.832,0.131-2.094-0.045-3.664,0.131
		c-0.485,0.054-1.392,0.111-2.027,0.266c-0.018-0.006-0.036-0.007-0.053-0.004c-0.186,0.033-0.488,0.121-0.742,0.199
		c-0.047-0.071-0.094-0.144-0.145-0.215c0,0-4.013,1.164-5.466,1.92c0,0-0.077,0.016-0.196,0.035
		c0.013-0.007,0.024-0.013,0.036-0.02c0.306-0.22-0.393-2.574-0.567-3.271c-0.175-0.698-0.655-1.048-0.567-1.222
		c0.066-0.136-0.153-0.583-0.497-0.779c-0.066-0.157-0.138-0.307-0.201-0.442c-0.027-0.058-0.074-0.158-0.144-0.291
		c-0.076-0.179-0.151-0.413-0.14-0.625c0.022-0.414,0.349-0.458,0.349-0.458c0.873,0.063,1.636,0.087,2.073-0.089
		c0.436-0.174,0.741-0.413,0.959-0.785c0.218-0.37,0.675-1.023,0.828-1.046c0.153-0.021,0.372-0.109,0.459-0.197
		c0.088-0.087,0-0.217,0-0.217s0.349-0.044,0.414-0.152c0.066-0.109,0-0.153,0.196-0.306c0.196-0.153,0.633-0.567,0.961-1.048
		c0.327-0.479,0.349-0.938,0.349-0.938c0.261,0.044,0.959,0.066,0.959,0.066c0.61-0.568,1.09-1.179,1.002-1.44
		c-0.086-0.262-1.024-0.546-1.024-0.546l0.086-0.218c0.043-0.261,0.523-0.566,0.698-0.741c0.174-0.175,0.219-0.48,0.086-0.871
		c-0.13-0.394,0.263-0.698,0.263-0.698c0.174,0.479,0.131,0.871,0.131,0.871c0.61-0.959,0.698-1.657,0.785-4.056
		c0.086-2.399-2.792-4.625-3.925-5.323c-1.135-0.697-1.832-0.043-1.963-0.13c-0.777-0.519,1.352-0.96,1.352-0.96
		c-1.09-0.348-2.006,0.872-2.006,0.872c-1.483-2.093-4.188-0.392-4.188-0.392c-3.489,1.222-4.929,5.277-4.929,7.415
		s0.087,4.362,0.087,4.362c0.392,0.916-0.742,1.265-0.742,1.265c0.436,0.523,1.222,0.044,1.179,0.263
		c-0.045,0.218-0.437,1.046-0.437,1.046v0.121c-0.043-0.017-0.085-0.032-0.131-0.047c0,0-0.61-0.234-0.988,0.027
		c0,0-0.378,0.436-0.348,0.815l0,0c-0.847-0.355-0.975,0-0.975,0s-0.306,1.439-0.96,1.613c0,0-1.657-0.263-2.617,0
		c-0.96,0.262-2.006,0.741-2.792,1.876c-0.785,1.134-0.567,1.614-0.785,2.966s0.043,1.483,0.088,1.614
		C7.063,34.115,6.582,35.249,6.845,37.081z M32.479,41.821c0,0,0-0.527-0.088-1.345l0.233-0.059
		c-0.276-0.828-0.306-1.919-0.306-1.919c-0.025-0.28-0.054-0.548-0.085-0.807c0.011,0.007,1.092,0.656,1.699,0.916
		c0.286,0.123,0.56,0.233,0.826,0.337c0.019,3.019,0.09,8.256,0.09,8.256s0.102,0.175,0.698,0.218
		c0.083,0.007,0.383-0.027,0.838-0.088c-0.079,0.04-0.159,0.083-0.242,0.133c0,0-2.85,1.104-3.78,1.512
		c-0.93,0.407-0.988,0.232-0.93,0.407c0.057,0.174-0.641-0.175-0.815,0c-0.175,0.174-1.104-0.291-1.338-0.407
		c-0.233-0.117-0.233-0.117-0.233-0.117s-0.116-3.548-0.173-3.955c-0.059-0.406-0.989-2.384-0.989-2.384S31.2,41.646,32.479,41.821z
		 M30.007,22.425c0.32,0.088,0.93,0.377,0.901,0.523c-0.028,0.146-0.697,1.076-0.901,1.104c-0.204,0.029-0.61-0.058-0.61-0.058
		C29.309,22.687,29.856,22.384,30.007,22.425z"/>
	<path id="XMLID_637_" fill="#442F7C" d="M56.412,31.021c-1.222,0.757-4.799,4.158-5.554,5.583
		c-0.757,1.425-1.018,3.315-1.425,3.926c-0.407,0.611-3.286,6.428-3.519,7.154c-0.233,0.728-0.028,5.758,1.165,8.521
		c1.172,2.718,3.14,7.181,3.635,7.561c0,0,0.002-0.003,0.007-0.008c0.032,0.082,0.077,0.141,0.108,0.181
		c0.116,0.146,0.61,0.729,0.814,0.902c0.204,0.175,0.728,0.378,1.163,0.233c0.437-0.146,0.321-0.437,0.67-0.583
		c0.349-0.145,0.551-0.203,0.726-0.349c0.174-0.146,0.174-0.146,0.174-0.146s0.351,0.176,0.637,0.287
		c-0.192,1.24-0.309,2.476-0.274,3.596c0.131,4.231,0.523,7.197,0.655,11.255c0.13,4.056,0.306,7.109-0.043,7.982
		c0,0,0.873,0.523,1.832,0.392c0.272-0.038,0.85-0.16,1.627-0.313c0.235,0.596,0.49,1.48,0.336,2.275
		c-0.262,1.354-0.523,6.109-0.567,8.683c-0.044,2.569,0,7.097,0.694,12.451c0.001,0.009,0.001,0.016,0.002,0.024
		c0,0-0.086,2.05-0.218,3.052c-0.131,1.004-0.785,4.189-1.004,6.151c-0.218,1.964,0.088,1.571,0.263,1.919
		c0.174,0.35-0.263,0.61-0.13,0.698c0.13,0.088,0.348,0.393,0.436,0.83c0.086,0.436,0.218,0.479,0.479,0.436
		c0.263-0.044,3.97,0,3.97,0s0.088-0.873,0.219-1.134c0.13-0.263,0.348-0.48,0.261-0.83c-0.088-0.348-0.349-2.616-0.349-3.271
		c0-0.653,0.349-1.743,0.392-2.224s-0.043-1.091-0.174-1.657c-0.13-0.567-0.698-2.617-0.524-3.709
		c0.004-0.024,0.009-0.052,0.016-0.084c0.254-1.397,2.353-10.061,2.908-13.133c0.567-3.141,0.086-4.974,0.305-5.845
		c0.218-0.873,0.741-2.443,0.959-2.399c0.219,0.042,1.047,2.835,1.047,3.184c0,0.35,0.48,5.409,0.48,7.896
		c0,2.486,0.742,6.411,0.873,8.245c0.083,1.153,0.043,1.597-0.008,1.877c-0.029,0.165-0.063,0.273-0.08,0.434
		c-0.043,0.437-0.393,2.573-0.828,3.708c-0.437,1.134-1.047,3.795-2.662,5.06c0,0-0.698,0.262-1.439,0.697
		c-0.741,0.437-0.088,0.568,0.131,0.698c0.218,0.132,0.13,0.393,0.306,0.916c0.175,0.523-0.088,1.222,0.261,1.222
		s4.711,0.567,5.017,0.479c0.306-0.086,0.915-0.872,0.915-0.872s0.131,0.48,0.262,0.698s0.306,0.13,0.437,0.174
		s0.349-2.79,0.872-4.274c0.523-1.482,1.44-2.967,1.527-3.838c0.086-0.873-0.48-2.182-0.349-2.705
		c0.13-0.523,0.174-0.784-0.043-1.833c-0.125-0.597-0.234-0.809-0.306-0.883c-0.055-0.055-0.086-0.032-0.086-0.032
		s1.787-8.461,2.311-14.699c0.524-6.239-0.653-6.109-0.785-6.851c-0.097-0.55-0.049-1.754-0.001-2.479
		c1.304-0.255,2.99-0.619,3.404-0.88c0,0-0.088-10.512-0.043-15.529c0.024-2.904-0.48-6.218-1.457-9.492
		c0.045,0.02,0.124,0.044,0.279,0.07c0.494,0.088,0.815,0.088,0.989,0.204c0.174,0.117,0.466,0.494,0.931,0.553
		c0.465,0.059,0.378,0.175,0.9,0.059c0.524-0.117,1.251-0.146,1.687-0.349c0.056-0.027,0.107-0.086,0.15-0.17
		c0.455-0.515,1.841-2.133,2.671-3.611c0.657-1.175,1.53-4.337,2.093-5.933c0.263-0.741,0.175-3.489,0.263-3.927
		c0.086-0.436-0.394-1.569-0.349-2.355c0.043-0.784-0.698-2.573-1.31-3.576c-0.61-1.002-1.789-2.704-2.093-3.665
		c-0.306-0.959-0.261-1.09-0.611-1.788c-0.349-0.697-1.177-1.919-1.309-2.225c-0.13-0.306-0.265-1.403-0.659-1.578
		c-0.392-0.175-2.002-0.864-2.438-1.475c-0.436-0.611-2.006-1.396-2.617-1.745c-0.611-0.349-2.53-0.437-3.142-0.392
		c-0.507,0.035-1.074-0.891-1.5-1.656c0.094-0.15,0.29-0.359,0.497-0.772c0.351-0.698,0.029-0.728-0.116-1.163
		c-0.146-0.437-0.465-0.582-0.581-0.786c0,0,0.553,0.379,0.64-0.117c0.088-0.494-0.175-0.289-0.291-1.134
		c-0.116-0.843,0.553-0.436,0.814-1.134s0-1.221,0-1.221c-0.408-0.232,0.116-1.018,0.349-1.833c0.232-0.813-0.175-2.297-0.815-2.47
		c-0.64-0.176-1.279-1.02-1.918-1.892c-0.64-0.873-2.24-2.094-2.791-2.268c-0.553-0.175-1.804-0.059-1.804-0.059
		c-2.033,0.11-4.303,1.104-5.234,2.85c-0.93,1.745-1.104,2.733-0.697,5.003c0,0-0.233,1.57-0.059,2.732
		c0.175,1.163,1.571,3.198,2.268,4.361c-0.261,0.263-1.279,1.28-1.599,2.095S57.634,30.265,56.412,31.021z M56.834,56.125
		c-0.063,0.477-0.274,1.305-0.54,2.342c-0.116,0.025-0.228,0.066-0.317,0.122c-0.32,0.204-0.641,0.35-0.611,0.494
		c0.029,0.146,0.029,0.671,0.059,0.757c0.029,0.087-0.349,0.116-0.524,0.495c-0.174,0.377-0.059,0.58-0.145,0.755
		c-0.088,0.175-0.437,0.233-0.553,0.438c-0.116,0.203-0.349-0.087-0.61-0.087c0.145-0.059-1.571-3.811-1.6-4.538
		c-0.029-0.726,0.218-0.879,0.086-1.569c-0.13-0.69-0.668-0.553-0.726-1.978c-0.057-1.425-0.057-4.305,0.261-4.887
		c0.117-0.213,0.2-0.445,0.273-0.687c0.12-0.26,0.214-0.64,0.39-1.127c0.021-0.045,0.041-0.09,0.065-0.134
		c0.224-0.412,0.927-1.722,1.503-2.776c0.057-0.101,0.112-0.201,0.166-0.302c0.25-0.456,0.458-0.835,0.571-1.023
		c0.066-0.114,0.144-0.203,0.224-0.277c0.055-0.028,0.125-0.072,0.223-0.16c0.176-0.096,0.345-0.13,0.459-0.141
		c0.023,0.087,0.046,0.193,0.126,0.259c0.218,0.175,0.174,0.218,0.349,0.916c0.024,0.097,0.047,0.186,0.069,0.275
		c0.002,0.056,0.004,0.114,0.004,0.176c0,1.134,0.698,2.733,0.814,3.954c0.117,1.223-0.087,1.833,0,2.792
		c0.088,0.96-0.319,0.175-0.638,1.542c-0.321,1.365-0.845,1.395-0.902,1.86c-0.059,0.466,0.146,0.466,0.727,0.67
		c0.262,0.092,0.438,0.135,0.569,0.15C56.74,54.529,56.999,54.872,56.834,56.125z M74.096,52.827
		c0.181-0.017,0.384-0.087,0.608-0.287c0.262-0.231,0.689-0.358,0.757-0.871c0.066-0.514-0.521-0.364-1.018-2.037
		c-0.553-1.861-0.145-1.657,0.029-2.5c0.174-0.844-0.204-0.961,0.204-1.367c0.407-0.406,0.785-1.104,0.785-2.268
		c0-1.051-0.284-2.932,0.045-3.5c0.017-0.008,0.033-0.017,0.051-0.025c0.113-0.051,0.223-0.054,0.333-0.033
		c0.074,0.025,0.161,0.054,0.256,0.09c0.192,0.086,0.395,0.206,0.63,0.271c0.018,0.006,0.033,0.012,0.051,0.016
		c0.177,0.091,0.341,0.189,0.467,0.296c0.035,0.031,0.069,0.067,0.107,0.103c0.023,0.025,0.046,0.053,0.064,0.079
		c0.219,0.328,0.709,0.826,1.196,1.366c0.306,0.456,0.603,0.887,0.81,0.988c0.313,0.45,0.478,0.633,0.617,0.831
		c0.051,0.113,0.104,0.23,0.169,0.349c0.247,0.453-0.13,0.633,0.348,0.652c0.352,0.593,0.637-0.235,0.96,1.135
		c0.348,1.483,0.567,0.916,0.61,1.222c0,0,0.479,6.021-1.963,10.25l-0.185,0.279c-0.187,0.065-0.648,0.206-0.876,0.113
		c-0.291-0.114-1.948-1.046-2.355-1.365c-0.261-0.205-0.785-0.438-1.163-1.075c-0.372-0.631-1.252-1.654-1.5-1.797
		c-0.052-0.099-0.102-0.199-0.158-0.298C73.976,53.442,74.017,53.127,74.096,52.827z"/>
	<path id="XMLID_634_" fill="#442F7C" d="M101.051,14.018c-1.744-2.908-2.85-3.663-5.525-4.827c0,0-1.396-0.059-2.792-0.407
		c-1.87-0.466-5.176,0.757-6.514,3.897c-1.337,3.14-1.337,4.711-0.93,5.933c0.406,1.222,0.64,2.151,1.337,2.616
		c0.667,0.446,1.492,0.518,1.563,0.522c0.052,0.423,0.127,0.995,0.298,1.631c0.028,0.406,0.146,0.9,0.377,0.958
		c0.349,0,0.612-0.26,0.786-0.145c0.175,0.116,0.581,0.64,0.697,0.873c0.117,0.231,0.117,0.231,0.117,0.231l0.291,0.291
		c0,0,0.291,0.117,0.466,0.233c0.173,0.115,0.115,0.232,0.406,0.582c0.291,0.349,1.047,0.871,1.571,0.581
		c0.522-0.291,2.326-1.279,2.792-1.744c0.465-0.467,1.047,0.348,1.337,0.696c0.292,0.35,0.292,0.35,0.292,0.35
		c-0.168,0.784-0.29,1.587-0.376,2.372c-1.008,1.056-3.715,3.913-4.045,4.433c-0.408,0.64-0.408,2.617-0.466,3.024
		c-0.01,0.074-0.108,0.097-0.262,0.091c0.01-0.519,0.005-1.226,0.088-1.603c0.117-0.523,0.466-1.803,0.35-2.501
		c-0.117-0.698,0.116-1.338-0.176-1.57c-0.29-0.233-0.348-0.466-0.348-0.698s0-0.233-0.174-0.465c-0.175-0.233-0.117-0.35,0-0.64
		c0.116-0.291-0.175-0.582-0.292-0.815c-0.116-0.232-0.059-0.93-0.116-1.162c-0.059-0.234-0.466-0.582-0.873-0.349
		c-0.537,0.306-0.349,0.871-0.408,1.046c-0.058,0.174-0.872-0.233-1.163,0.174c-0.29,0.408-1.047,1.513-1.279,2.036
		s-0.465,0.757-0.408,1.221c0,0-0.116,0.524,0.117,0.815c0.233,0.29,0.059,0.757,0.291,1.047s0.755,1.162,0.931,1.57
		c0.15,0.354,0.084,1.231,0.252,1.874c-0.498,0.7-0.839,2.187-0.893,3.244c-0.059,1.164,0.465,2.5,0.175,4.361
		c-0.291,1.861,0.059,1.978,0.641,4.072c0.581,2.094,0.755,3.314,1.162,3.663c0.408,0.35,0.815,0.932,1.339,0.989
		c0.508,0.057,1.403,0.004,1.719,0.163c0.017,0.043,0.025,0.052,0.025,0.011c0.291,0.175,0.408,7.503,0.757,9.83
		c0.187,1.252,0.19,3.446,0.197,5.324c-0.07,1.722-0.095,3.232,0.152,3.343c0.291,0.755,0.93,0.521,1.279,0.465
		c0.349-0.058,1.163,7.851,1.454,12.04c0.292,4.188,1.397,11.923,2.269,16.459c0.873,4.535,1.28,5.409,1.455,7.037
		c0.173,1.628,0.522,3.314,0.697,3.723c0.175,0.406,0.989,1.687,1.106,2.385c0.116,0.698-0.466,2.791-0.233,3.083
		c0.233,0.29,1.396,0.581,1.687,0.64c0.291,0.057,0.233,0.988-0.814,1.687c-1.047,0.698-2.56,2.209-6.98,2.385
		c0,0-0.989-0.059-1.104,0.756c-0.117,0.813-0.349,0.755-0.117,0.813c0.233,0.059,1.804,1.279,8.202,0.988
		c0,0,2.442-0.465,3.199-0.407c0.757,0.059,1.047,0.349,2.093,0.349c1.047,0,4.363,0.176,4.887-0.173
		c0.522-0.349,0.232-1.629,0.232-2.036s0-2.035-0.058-2.617c0,0,0.522,0.059,1.221,1.163c0.698,1.105,0.349,0.931,0.116,1.569
		c-0.232,0.642-0.465,1.164-0.291,1.514c0.175,0.349,0.291,0.58,0.291,0.58s7.445,0,7.678,0c0,0,0.116-2.675,0.057-4.186
		c-0.057-1.514-0.697-11.865-0.638-13.843c0.058-1.978,0.522-5.119-1.222-11.108c0,0-0.466-1.979-0.466-2.56
		c0-0.582-2.5-3.025-2.558-3.956c-0.059-0.93,0.407-2.094,0.116-2.675s-0.465-1.105-0.524-1.803
		c-0.057-0.698-0.116-2.793-0.116-3.548c0-0.757,0.174-6.922,0.174-7.853c0-0.188,0.006-0.565,0.02-1.044
		c0.121-0.055,0.186-0.193,0.214-0.41c0.025-0.212-0.058-0.557-0.171-0.913c0.01-0.302,0.022-0.614,0.036-0.925
		c0.12,0.009,0.251-0.022,0.367-0.139c0.349-0.35,0.465-0.757,0.232-1.396c-0.162-0.448-0.351-0.754-0.451-1.136
		c0.033-0.405,0.067-0.692,0.103-0.785c0.175-0.465,4.943-1.744,5.176-2.385c0.232-0.64-0.408-1.336-0.408-2.442
		c0-1.104-1.104-6.514-2.036-9.945c-0.93-3.432-1.047-10.237-1.047-12.97s-1.686-10.993-3.896-14.772
		c-2.21-3.78-5.526-4.596-9.54-2.966c0,0-1.687-0.059-1.918-0.641c-0.233-0.581-0.465-0.698-0.465-0.698s-0.185,0.181-0.488,0.596
		c-0.332-0.051-0.813-0.159-0.85-0.712c0,0-0.896,0.946-1.929,2.314c0.52-0.871,1.003-1.615,1.288-1.85c0,0-0.522-0.29-0.291-1.569
		c0,0,0.349-0.408,0.581,0.116c0.233,0.523,0.35,0.988,0.35,0.988S102.796,16.927,101.051,14.018z M86.161,19.776
		c0,0,0.408,0.29,0.698,0.523c0.292,0.231,0.408,0.64,0.698,0.757c0.292,0.114,0.523-0.117,0.582,0.29
		c0.016,0.109,0.031,0.247,0.051,0.404C88.063,21.714,86.161,21.125,86.161,19.776z"/>
	<path id="XMLID_627_" fill="#442F7C" d="M147.326,20.74c0,0-0.307,0.122-0.552,0.309c-0.246,0.184-1.349,1.286-1.656,1.778
		c-0.307,0.49-0.307,0.675-0.614,0.858c-0.306,0.185-2.331,2.148-3.558,5.521c-1.227,3.373-1.104,8.527-1.043,10.245
		c0.062,1.717,0.185,2.515,0.492,4.111c0.232,1.206,0.815,3.78,1.244,5.15c-0.067,0.262,0.005,0.601,0.352,0.861
		c0.368,0.429,1.288,1.533,1.473,2.147c0.008,0.043,0.019,0.081,0.031,0.122c0.103,0.51-0.194,0.647,0.091,1.104
		c0.307,0.491,0.338,0.4,0.629,0.629c0,0,0.138,0.736,0.367,1.15c0.23,0.414-0.321,0.552-0.552,0.874s-0.461,2.623-0.184,5.844
		c0.275,3.221,2.162,7.315,2.254,7.868c0,0.444-0.613,1.427-0.552,1.979c-0.08,0.597,0.324,1.126,0.432,1.437
		c0.014,0.05,0.024,0.093,0.028,0.128c0,0.276-0.46,1.519-0.736,1.841c-0.276,0.32-0.092,1.379,0,2.806
		c0.092,1.428-0.046,5.844-0.138,6.35s-1.059,3.543-1.611,7.776c-0.552,4.231-0.873,9.983-1.104,12.698s0.321,6.304,0.321,7.271
		c0,0.966-0.275,1.472-0.413,2.115c-0.139,0.645-0.322,3.176-0.461,3.728c-0.138,0.553-0.229,1.841-0.413,1.841
		c-0.185,0,0.458,0.092,0.458,0.092s-0.138,1.104-0.092,1.288c0.046,0.185,0.092,0.461,0,0.645
		c-0.092,0.183-0.046,1.747-0.046,1.747c1.059,0.322,17.807,0.322,18.542,0.322c0.736,0,3.451-0.688,3.451-0.688
		c0.414-0.186-0.046-1.198-0.414-1.473c-0.368-0.276-2.898-0.229-3.083-0.321c-0.183-0.095,0.185-0.323-1.335-0.277
		c-1.517,0.046-2.576-1.149-2.622-1.287c-0.046-0.139-0.552-0.415-0.598-0.783c-0.047-0.368-0.645-3.497-0.645-4.279
		s-0.598-4.509-0.828-4.785s-0.276-0.368,0.322-1.196c0.598-0.829,0.69-1.841,1.104-4.555c0.415-2.716,1.933-10.352,2.577-13.021
		c0.643-2.668,1.104-8.466,1.564-10.169c0.459-1.702,1.059-6.073,1.059-6.256c0-0.185,0.322-0.554,0.322-0.554
		s-0.276-2.989-0.23-4.141c0.045-1.149,0.505-3.266,0.874-5.015c0.368-1.748-0.091-3.911,0.139-6.441
		c0.229-2.531,0.229-3.589,0.183-3.958c0.055-0.083,0.104-0.184,0.146-0.292c0.125-0.084,0.278-0.124,0.223-0.26
		c-0.018-0.046-0.049-0.131-0.089-0.238c0.029-0.189,0.033-0.383,0.007-0.558c0.294-0.034,0.785-0.167,1.027-0.293
		c0.413,0.945,0.796,1.771,0.972,1.887c0.368,0.246,0.184-0.552,0.122-1.166c-0.061-0.612,0-1.349-0.122-1.656
		c-0.061-0.151-0.759-2.007-1.503-4.037c0.399-0.465,2.003-1.348,2.484-1.668c0.553-0.367,2.27-0.798,2.823-1.288
		c0.551-0.491,2.822-2.024,3.127-2.944c0.308-0.92,0.86-1.104,1.228-1.227c0.368-0.124,1.839-1.657,2.024-1.841
		c0.183-0.185-1.343-2.646-1.534-2.7c-0.066-0.019-0.189,0.036-0.322,0.112c0.06-0.08,0.11-0.146,0.13-0.165
		c0.069-0.069,0.805-0.6,1.013-0.782c0.208-0.185,0.643-0.276,1.402-0.208s1.68-0.459,2.37-0.735c0.69-0.276,3.13-1.427,3.865-1.703
		c0.736-0.275,0.622-0.482,0.322-0.599c-0.299-0.114-1.91,0.622-2.507,0.714c-0.597,0.093-0.713-0.207-0.437-0.437
		c0.275-0.231,1.817-0.736,2.553-0.897c0.736-0.162,1.702-0.552,1.91-0.736c0.206-0.185-0.092-0.392-0.208-0.438
		c-0.114-0.046-0.874,0.023-1.057,0.023c-0.185,0-0.07-0.092,0.253-0.207c0.321-0.115,1.104-0.507,1.058-0.69
		c-0.046-0.183-0.229-0.276-0.805-0.23c-0.576,0.048-0.759-0.092-0.759-0.092c0.574-0.252,0.208-0.597,0.208-0.597
		c-0.092-0.231-2.531,0.137-2.761,0.091c-0.23-0.045-0.322,0.046-0.874,0.184c-0.553,0.138-1.104,0.276-1.473,0.276
		s-0.828,0.414-1.288,0.506c-0.461,0.092-0.232-0.32-0.139-0.69c0.092-0.366,0.69-0.78,0.828-1.15c0.138-0.368,0.092-0.874,0-1.148
		c-0.092-0.277-0.368-0.229-0.506,0.183c-0.139,0.414-0.645,1.014-0.874,1.242c-0.231,0.23-0.645,0.554-1.244,1.012
		c-0.597,0.461-1.793,2.394-1.885,2.899c-0.092,0.507-1.893,1.982-1.841,2.071c0.694,1.184,1.865,2.273,2.27,2.635
		c-0.038,0.03-0.061,0.049-0.061,0.049s-2.087-2.117-2.209-2.684c0,0-2.085,1.702-2.822,2.807c0,0-2.516,0.49-2.822,1.227
		c-0.307,0.736,0,1.043-0.307,1.104c-0.307,0.061-0.736,0.675-1.288,0.491c-0.553-0.184-0.246-0.246-0.921-0.063
		c-0.674,0.185-0.306-0.367-1.042-0.613c-0.368-0.122-0.707-0.414-0.999-0.698c-0.388-1.337-0.733-2.565-0.842-3.105
		c-0.246-1.227-0.921-3.679-0.982-4.109c-0.061-0.43-1.288-1.964-1.227-2.454c0.063-0.491,0.063-0.92,0.063-0.92
		s-0.736-1.411-1.229-1.841c0,0-0.003,0.019-0.009,0.046c-0.033-0.363-0.15-0.954-0.432-1.568c0.023-0.022,0.046-0.044,0.074-0.073
		c0.306-0.306,0.674-0.552,1.288-0.981c0.613-0.428,1.656-0.306,2.454-0.244c0.797,0.061,0.981-0.184,1.288-0.492
		c0.307-0.306,0.062-0.49-0.061-0.98c-0.122-0.492,0.371-0.326,0.431-0.734c0.043-0.293-0.23-0.209-0.23-0.578
		c0-0.367,0.521-0.038,0.46-0.344c-0.063-0.308,0.076-0.92,0.076-0.92s0.357,0,0.556,0.01c0.274,0.017,0.675-0.128,0.553-0.667
		c-0.093-0.401-0.188-0.632-0.188-0.632s0.124-0.245,0.431-0.858c0.306-0.614,0.428-1.596,0.06-1.718
		c-0.367-0.123-0.612-0.246-0.612-0.553c0-0.306-0.246-0.306-0.246-0.92s0-1.411-0.368-2.271c-0.368-0.858-0.582-1.257-0.582-1.257
		c0.307,0,1.166,0.49,1.166,0.49c-0.306-1.043-0.797-2.208-2.146-3.189c-1.351-0.981-3.897-1.81-6.289-1.626
		c-2.392,0.184-2.823,0.858-4.908,2.209c-2.085,1.35-1.595,3.741-1.288,5.705c0.307,1.962,0.859,2.024,0.92,2.883
		c0.061,0.859,0.246,1.473,0.49,1.656c0.246,0.185,0.062,0.613,0.062,0.613S147.755,19.882,147.326,20.74z M144.918,53.349
		c0.083-0.049,0.167-0.087,0.246-0.103c0.093,0.009,0.153,0.009,0.153,0.009C145.252,53.255,145.094,53.296,144.918,53.349z
		 M162.202,52.316c-0.052-0.049-0.112-0.091-0.182-0.118C162.13,52.202,162.183,52.25,162.202,52.316z M161.191,15.435
		c0.046-0.322,0.666-0.598,0.666-0.598c0.713-0.022,0.622,0.321,0.552,0.92c-0.067,0.599-0.552,1.404-0.666,1.495
		c-0.115,0.092-0.369-0.575-0.506-0.851C161.098,16.125,161.144,15.757,161.191,15.435z M157.326,33.072
		c0.115,0.259,0.26,0.666,0.422,1.163c-0.352-0.549-0.748-1.586-1.173-2.404C156.856,32.219,157.136,32.646,157.326,33.072z
		 M154.565,27.367c0.12-0.2,0.526-0.634,0.794-1.031c-0.198,0.328-0.549,0.786-0.549,0.786s0.431,0.551,0.736,1.165
		c0.307,0.613-0.061,1.718,0.061,2.148c0.021,0.068,0.069,0.157,0.134,0.261c-0.509-0.514-0.277-0.591-0.5-1.428
		C154.995,28.349,154.382,27.673,154.565,27.367z"/>
	<path id="XMLID_622_" fill="#442F7C" d="M177.585,86.517c-0.55,2.754-1.041,2.204-0.979,2.999c0.061,0.796,0.489,1.897,1.163,3.061
		s5.571,10.591,6.856,13.163c1.285,2.57,1.897,4.162,2.326,5.754c0.429,1.593,1.102,2.571,1.102,2.571s1.102,0.185,1.285,0.122
		c0.184-0.062-0.367,2.635-1.102,3.552c0,0-0.55,1.102-1.408,1.407c-0.857,0.307-2.387,1.47-2.754,1.838
		c-0.368,0.366,0,0.796,0,0.796s2.08,0.428,2.754,0.061c0,0-0.489,0.551,0,0.856c0.489,0.306,1.041,0.735,8.081,0.43
		c0,0,1.285-0.185,1.285-1.531l0.857-0.735l-0.184,2.267l3.062,0.06c0,0-0.428-0.184-0.428-0.795s0-2.632,0.245-3.184
		c0.245-0.55,0.184-1.163,0.122-1.714c-0.062-0.55-0.246-7.836-0.367-9.305c-0.124-1.47,0-10.225-0.124-11.326
		c-0.122-1.103,0.124-3.551,0.124-4.408s-0.857-3.428-0.736-4.284c0.124-0.858,2.144-4.715,2.205-5.756
		c0.062-1.039,1.591-14.509,1.347-17.264s-0.245-6.488-1.776-10.102c0,0,0.429-0.06,0.491-0.367c0.015-0.077,0.03-0.214,0.044-0.373
		c0.013-0.084,0.021-0.176,0.027-0.281c0.149-0.012,0.375-0.034,0.693-0.08c0.059-0.008,0.122-0.028,0.188-0.053
		c0.651-0.178,1.665-1.244,1.972-1.815c0.121-0.224,0.321-0.515,0.526-0.8c0.226-0.18,0.48-0.435,0.651-0.761
		c0.126-0.238,1.336-2.951,1.86-4.468c0.261-0.033,0.511-0.092,0.709-0.16c0.186-0.056,0.338-0.122,0.431-0.192
		c0.223-0.167-0.183-2.388-0.137-2.754c0.045-0.368-0.184-2.435-0.275-3.123c-0.092-0.688-0.322-0.917-0.184-2.021
		c0.136-1.102-0.275-2.846-0.46-3.627c-0.183-0.78-0.321-1.699-0.367-2.433c-0.046-0.735-0.138-1.103-0.552-1.608
		c-0.413-0.505-3.902-1.239-4.315-1.743c-0.414-0.506-1.057-0.873-1.195-1.563c-0.138-0.688-1.056-1.01-1.056-1.01
		s-0.01,0.006-0.024,0.014c-0.222-0.56-0.635-1.703-0.549-2.264c0.115-0.758,1.033-2.271,1.424-2.686
		c0.389-0.414,1.125-2.089,1.263-2.824c0.137-0.734,0.046-1.929,0.046-1.929s0.344,0.185,0.527,0.16
		c0.183-0.021-0.161-0.251-0.115-0.688c0.046-0.436,0.138-0.872,0.207-1.4s-0.207-1.354-0.619-1.102
		c-0.414,0.252-0.529,0.688-0.644,0.506c-0.115-0.186-0.047-0.598-0.138-0.689c-0.093-0.092-0.069,0.16-0.299,0.068
		c-0.228-0.092-0.848-0.964-1.629-1.539c-0.781-0.573-2.992-1.375-4.377-1.331c-1.958,0.065-3.734,1.041-4.469,2.082
		c-0.734,1.041-1.835,3.367-1.713,4.039c0.122,0.676,0.443,1.012,0.199,1.317c-0.246,0.306-1.301,1.224-1.178,1.53
		c0.122,0.307,0.52,0.43,0.703,0.43c0,0-0.138,0.657,0.032,1.069c0.167,0.414,0.642,0.828,0.703,0.919
		c0.062,0.093-0.076,0.093,0.031,0.261c0.107,0.169,0.214,0.169,0.336,0.352c0.122,0.184,0,0.535,0.093,1.072
		c0.092,0.534-0.093,0.565,1.162,1.239c1.256,0.673,2.02,1.193,2.404,1.837c0.381,0.642,0.764,1.285,0.703,2.051
		c0,0,0,0.005,0,0.008c-0.192,0.135-0.63,0.484-1.561,1.384c-1.424,1.378-1.01,1.103-1.056,1.286
		c-0.008,0.028-0.029,0.049-0.063,0.064c-0.11,0.026-0.273,0.055-0.485,0.128c-0.269,0.083-0.627,0.237-1.059,0.588
		c-0.964,0.78-1.469,1.102-2.065,2.066c-0.275,0.443-0.964,1.9-1.684,3.522c-0.304,0.044-0.607,0.161-0.728,0.281
		c-0.183,0.184-0.16,0.413-0.023,0.619c0.056,0.083,0.146,0.176,0.242,0.263c-0.063,0.145-0.125,0.287-0.186,0.432
		c-0.135,0.034-0.253,0.075-0.285,0.134c-0.089,0.155-0.112,0.336-0.006,0.558c-0.473,1.132-0.87,2.146-1.05,2.731
		c0,0,1.285,0.965,1.699,1.057c0,0,0.229,2.157,0.734,2.893c0,0-0.092,1.331-0.367,2.112c-0.275,0.779-1.056,1.469-1.286,1.652
		c-0.229,0.185-0.092,1.056,0.184,1.423c0.018,0.024,0.033,0.047,0.051,0.07c-0.314,0.77-2.399,5.93-3.034,8.898
		c-0.689,3.215-2.158,5.005-2.342,5.694c-0.185,0.688-0.047,2.02-0.139,2.434c-0.092,0.412-0.827,1.744-0.873,2.295
		c-0.046,0.551,0,1.561-0.046,2.204c-0.046,0.643-0.046,1.469,0.091,1.652c0.125,0.167,0.664,1.572,0.901,2.179
		c-0.131,0.679-0.251,1.382-0.364,2.046C178.503,81.129,178.136,83.763,177.585,86.517z M187.564,86.333
		c0.275-0.275,0.917-1.287,0.917-1.287c0.414,0.554,0.277,2.526,0.231,3.445c-0.047,0.917,0.275,2.388,0.55,3.535
		c0.276,1.147,0.827,3.673,0.918,4.498c0.092,0.828,0.046,3.262,0.046,3.262s-0.367-0.367-0.458-1.011
		c-0.092-0.644-0.552-1.377-0.919-2.251c-0.368-0.871-1.102-2.387-1.239-2.754s-0.138-1.011-0.184-1.515
		c0.009-0.087-0.014-0.159-0.053-0.226c-0.143-0.379-0.512-0.645-0.59-0.877c0.033-0.249,0.07-0.441,0.105-0.642
		c0.033-0.111,0.064-0.23,0.078-0.368c0.042-0.419,0.195-0.61,0.047-0.92c-0.04-0.339-0.223-0.329-0.368-0.824
		C187.06,87.94,187.288,86.608,187.564,86.333z M182.522,66.088c-0.034,0.728-0.059,1.286-0.076,1.709
		c-0.107-0.429-0.253-0.763-0.253-1.023C182.192,66.411,182.333,66.294,182.522,66.088z M180.264,72.329
		c0.12,0,0.368,0.523,0.43,0.655c-0.113,0.229-0.23,0.418-0.354,0.554c-0.08,0.088-0.158,0.203-0.232,0.338
		c-0.103-0.248-0.188-0.501-0.166-0.767C179.988,72.558,180.126,72.329,180.264,72.329z"/>
	<path id="XMLID_685_" fill="#442F7C" d="M289.856,22.626c-0.318,0.214-1.033,1.085-1.291,1.386
		c-0.287,0.334-0.923,0.494-1.592,0.639c-0.669,0.143-1.036,0.222-2.374,0.365c-1.339,0.143-1.959,0.716-2.772,1.242
		c-0.812,0.525-3.01,3.966-3.297,4.443s-0.382,3.68-0.525,4.349c-0.144,0.67-0.717,2.055-1.052,3.345
		c-0.334,1.291-2.939,8.024-2.675,8.887c0.526,1.721,3.297,2.484,3.104,3.106c-0.191,0.621-1.75,13.22-1.75,14.271
		s-0.27,3.313,0.51,4.205c0.446,0.51,1.72,0.781,1.72,0.781c0.048,1.338,0.669,10.178,0.717,11.851
		c0.047,1.671,0.858,3.821,0.858,5.255c0,1.435-1.958,15.48-2.387,17.201c-0.431,1.722-1.674,9.365-1.53,10.226
		s1.481,2.341,1.576,2.771c0.096,0.431-0.667,1.769-0.858,2.39c-0.191,0.621,0.907,2.484,0.907,3.01s0.382,1.386,0.382,1.386
		s0.717,0.143,1.386,0.143c0.668,0,8.267-0.047,8.505-0.047c0.239,0,0.668-0.145,0.668-0.478c0-0.334-0.287-0.334-0.287-0.669
		s0.048-0.431-0.333-0.957c-0.382-0.524-1.338-1.098-1.72-1.671c-0.383-0.573-0.287-0.86-0.095-1.195
		c0.191-0.334,1.337-0.813,2.006-2.628s0.86-2.962,0.86-3.535s0.238-2.293,0.238-2.293c0.097,0.415,0.32,2.132,0.445,3.397
		c-0.037,0.277-0.087,0.577-0.158,0.901c-0.477,2.199-0.669,2.293-0.287,2.629c0,0.333,0.908,1.528,0.908,1.528
		c-0.047,0.431-0.525,4.492-0.525,4.492c0.573,0.62,4.969,0.333,5.637,0.286c0.67-0.047,0.956-0.478,0.956-0.478
		c1.004,0.622,6.404,0.765,7.455,0.716c1.051-0.047,3.249-0.572,3.249-0.572s0.478-0.144,0.335-0.335
		c-0.144-0.19,0-0.382-0.239-0.908c-0.238-0.526-0.716-0.765-1.003-0.62c-0.287,0.143-1.481,0.048-2.532,0.048
		c-1.051,0-1.959-0.86-2.342-1.434c-0.382-0.573-0.048-0.431-0.526-0.956c-0.478-0.526-0.573-0.478-0.765-0.908
		c-0.191-0.431,0.573-1.385,0.526-1.815c-0.048-0.431-0.335-0.859-0.765-2.055c-0.43-1.195-1.003-2.819-1.099-4.109
		c-0.096-1.291-0.334-1.911-0.334-3.345c0-1.433,0.047-3.44,0.047-4.778s0.238-3.87,0.335-4.921c0.096-1.052,0.716-3.918,0.86-5.065
		c0.143-1.146,0.334-4.062,0.287-4.874c-0.048-0.813,0.573-4.013,0.86-5.351s0.573-4.445,0.621-5.782
		c0.048-1.338-0.143-4.349-0.334-4.922c-0.191-0.573-0.287-2.867-0.287-2.867c0.041-0.591,0.061-1.074,0.069-1.476
		c0.002-0.002,0.004-0.005,0.006-0.006c0.68,0.034,1.689-0.446,2.234-1.209c0.637-0.892,0.064-2.23-0.127-2.868
		c-0.104-0.348-0.438-2.812-0.791-5.171c0.305,0.283,0.615,0.552,0.615,0.552s0.055-0.172,0.125-0.489
		c0.445,0.05,0.857,0.076,1.07,0.076c0.573,0,0.509-1.466,0.509-1.784c0-0.07,0.013-0.164,0.014-0.316
		c0.024-0.031,0.041-0.05,0.041-0.05c0.243,0,0.52,0.069,0.624,0.173c0.104,0.105,0.347,0.278,0.729,0.208
		c0.382-0.068,1.249-0.139,1.735-0.485c0.484-0.346,0.346-0.45,0.381-0.833c0.036-0.381,0.036-0.312-0.035-0.797
		c-0.07-0.485,0.035-1.075,0-1.527c-0.036-0.45-0.07-0.521-0.139-0.832c-0.07-0.313-0.312-0.347-0.521-0.659
		c-0.208-0.313-0.139-0.313-0.312-0.557c-0.173-0.242-0.728-0.276-1.249-0.276c-0.52,0-1.631,0.104-1.735,0.104
		s-0.792-0.028-0.871,0.114c0,0-0.07-0.019-0.178-0.041c0.001-0.002,0.003-0.006,0.003-0.006l-0.041-0.001
		c-0.22-0.044-0.564-0.09-0.812-0.031c-0.021-0.079-0.041-0.148-0.056-0.206c-0.029-0.102-0.061-0.235-0.096-0.393
		c-0.13-1.194-0.083-2.938-0.352-4.545c-0.041-0.246-0.097-0.509-0.162-0.777c0.344,0.014,0.661,0.081,0.901,0.056
		c0.473-0.053,1.051,0,1.419,0.053c0.368,0.054,1.261,0.473,1.525,0.578c0.261,0.104,1.157,1.051,1.524,1.104
		c0.368,0.054,0.368-0.053,0.368-0.263s-0.735-0.787-0.947-1.051c-0.21-0.263-0.707-0.597-0.865-0.911
		c-0.158-0.314,0.614-0.398,0.917-0.298c0.474,0.156,1.14,0.638,1.419,0.895c0.3,0.271,0.579,0.726,1.053,0.884
		c0.472,0.158,0.648-0.402,0.314-0.728c-0.155-0.151-1.55-1.498-1.761-1.708c-0.21-0.211-0.721-0.456,0.01-0.439
		c0.372,0.007,1.445,0.541,1.75,0.833c0.356,0.34,0.964,0.779,1.28,0.885c0.314,0.106,0.493-0.383,0.297-0.7
		c-0.42-0.683-3.055-2.438-3.474-2.594c-0.421-0.158-0.148-0.476-0.148-0.476s0.585-0.135,0.901-0.135
		c0.314,0,1.013-0.029,1.276,0.181c0.263,0.211,1.07,0.229,1.07,0.02c0-0.209-0.887-0.912-1.885-0.965
		c-0.528-0.027-1.733-0.077-2.83-0.127c0.245-0.199,0.563-0.418,0.823-0.555c0.374-0.195,0.947-0.72,0.886-1.176
		c-0.065-0.479-1.2,0.156-1.2,0.156s-0.431,0.148-0.862,0.346c-0.432,0.196-0.622,0.19-1.051,0.43
		c-0.275,0.153-0.736,0.268-1.051,0.478c-0.15,0.101-0.771,0.298-1.131,0.614c-0.303,0.172-0.514,0.271-0.889,0.413
		c-0.251,0.094-0.61,0.11-0.948,0.143c-0.26-0.76-0.46-1.4-0.503-1.791c-0.128-1.146-0.32-1.784-0.447-2.931
		c-0.06-0.533-0.395-1.604-0.736-2.598c0.069-0.374,0.221-0.809,0.068-1.304c-0.154-0.502-0.622-1.568-0.998-1.779
		c-0.081-0.377-0.146-0.661-0.181-0.754c-0.047-0.131-0.078-0.211-0.096-0.264c0.018-0.022,0.039-0.046,0.056-0.071
		c0.143-0.191,0.096-0.382,0.645-0.812c0.549-0.431,3.058-0.955,3.225-1.004c0.168-0.048,0.215-0.143,0.479-0.907
		c0.262-0.766,0.86-1.314,0.812-1.506c-0.047-0.19,0.12-0.382,0.215-0.431c0.095-0.047,0.359-0.143,0.479-0.645
		c0.118-0.502,0.214-0.859,0.333-0.908c0.121-0.047,0.335,0,0.335,0c0.455,0.049,0.431-0.405,0.431-0.692
		c0-0.286-0.168-0.836-0.168-1.147c0-0.309,0.12-0.978,0.12-0.978s0.335-0.264,0.311-0.431c-0.029-0.201,0.287-0.502,0.287-0.502
		c0.168-0.096,0.144-0.502,0.191-1.313c0.053-0.907-0.129-2.617-0.129-2.617c-0.127-0.637,1.47-0.057,1.47-0.057
		c-0.382-2.422-3.833-5.529-6.254-6.039c-2.422-0.51-5.097,0-6.753,1.274c-1.658,1.273-2.677,8.154-2.677,9.175
		c0,1.019,0.893,2.42,0.765,3.185C290.731,22.292,290.069,22.267,289.856,22.626z"/>
	<path id="XMLID_684_" fill="#442F7C" d="M316.896,43.957c-0.229,0.185-0.185,0.62-0.344,0.574c-0.162-0.046-0.345-0.23-0.367-0.437
		c-0.023-0.205-0.115-0.619-0.321-0.505c-0.208,0.116-0.345,0.321-0.253,0.711s-0.021,0.781,0.162,0.964
		c0.184,0.184,0.504,0.389,0.55,0.505c0.046,0.114-0.137,0.367-0.069,0.527c0.069,0.16,0.436,0.505,0.688,0.643
		c0.252,0.137,0.344,0.274,0.458,0.436c0.116,0.16,0.276,0.458,0.506,0.596c0.229,0.138,0.642,0.39,0.734,0.483
		c0.091,0.092,0.046,0.113,0.252,0.343c0.207,0.23,0.138,0.206,0.344,0.298c0.208,0.092,1.926,0.024,2.18,0
		c0.252-0.021,0.504-0.113,0.504-0.113s0.167-1.929,0.801-2.918c-0.399,0.753-1.05,2.834-0.708,4.696c0,0,0.572,1.034,0.938,1.096
		c0.368,0.061,0.752,0.285,0.752,0.285s-0.023-0.062-0.058-0.229c0.022,0.083,0.045,0.162,0.065,0.235
		c-0.003-0.002-0.005-0.003-0.008-0.006c0,0-0.567,1.794-0.752,3.506c-0.183,1.713-0.365,2.753-0.488,3.671
		c-0.124,0.918-0.124,1.529-0.124,1.529s1.163-1.651,1.469-2.08c0.306-0.429,0.367-0.306,0.489-0.856
		c0.014-0.062,0.029-0.176,0.046-0.33c0.002,0.907,0.131,1.436,0.26,2.594c0.184,1.651-0.091,1.284,0.092,3.027
		c0.184,1.742-0.183,2.201,0.367,3.577c0.55,1.377,0.367,1.927,0.55,2.753c0.183,0.825,1.009,1.101,1.009,1.101
		s0.184,0.825-0.092,1.469c-0.275,0.643-0.275,2.844-0.092,3.485c0.184,0.643,0.367,2.568,0.735,3.945
		c0.367,1.376,0.55,2.295,1.191,3.671c0.644,1.375,0.552,1.192,0.827,2.659c0.275,1.468,0.458,1.284,0.458,3.763
		c0,2.477,0.183,2.201,0.458,3.485c0.275,1.285,0.734,1.561,0.55,2.569s-0.092,1.376,0,2.477c0.092,1.102,0.367,1.01,0.458,2.111
		c0.092,1.101-0.458,0.642,0,1.834c0.46,1.192,1.192,1.009,1.192,2.386c0,1.376,0.367,4.77-0.183,6.788
		c-0.549,2.019-1.376,3.12-1.468,3.58c-0.092,0.457,0,0.182,0.092,1.467c0.092,1.284,0.275,2.11-0.367,2.568
		c-0.642,0.459-1.561,1.743-5.963,1.652c0,0-1.652,0.457-1.377,1.1c0.276,0.644,2.846,1.192,5.046,1.469
		c0,0,11.744,0.275,14.221,0.184c0,0,1.101-0.184,1.192-0.46c0.092-0.273-0.091-1.009-0.183-1.284s-0.274-1.468-0.184-2.385
		c0.092-0.917,0.184-0.917,0-1.56c-0.184-0.642-1.192-0.917-0.917-2.11c0.275-1.192,0.917-1.927,1.101-2.936
		c0.183-1.01,0.367-9.082,0.275-11.928c-0.092-2.844-1.284-8.531-1.284-10.458c0-1.928,0.092-2.661-0.275-3.486
		c-0.367-0.826-0.917-1.56-0.826-2.019c0.092-0.458,0.826-1.561,0.734-4.587c-0.092-3.028-0.275-4.954-0.275-5.505
		s0.55-2.111,0.917-3.212c0.367-1.099,0-1.192,0.55-2.018c0.12-0.179,0.298-0.317,0.504-0.427c0.158,0.02,0.322,0.039,0.504,0.06
		c0.827,0.092,1.376-0.46,1.376-0.46s-1.926-5.87-1.926-9.265c0-3.396-1.192-5.872,1.377-16.79
		c2.568-10.917-4.313-13.577-6.148-15.045l-0.825-1.928c0,0-0.115-0.004-0.333,0.058c-0.236-0.237-0.464-0.446-0.585-0.562
		c0,0-0.145,0.096-0.398,0.271c0.182-0.156,0.32-0.259,0.398-0.271c0.276-0.046,0.413-0.643,0.413-0.643s0.413-0.504,0.873-1.33
		c0.457-0.826,0.642-1.285,0.734-2.202c0.09-0.917,0.275-1.192,0.367-1.927c0.09-0.733-0.644-0.733-0.552-1.742
		c0.093-1.009,1.286-0.735,0.368-1.928c-0.917-1.192-1.926-1.009-1.835-2.018c0.093-1.011-0.275-1.376-0.917-1.651
		c-0.642-0.276-0.917-0.368-1.744-0.368c-0.824,0-1.284-0.459-1.926-0.367c-0.642,0.094-0.092,0.367-1.009,0.644
		c-0.917,0.275-0.734,0-1.926,0.367c-1.192,0.365-1.284-0.917-1.835,0.184c-0.549,1.101-1.743,1.284-2.293,1.926
		c-0.55,0.643-0.917,0.551-0.367,1.101c0.55,0.551,0.826,0.459,0.367,1.103c-0.458,0.642-0.09,0,0.642,0.228
		c0.438,0.138-1.146,2.341-1.192,3.212s0,1.102,0.046,1.514s0.321,0.366,0.046,0.642c-0.275,0.275-1.192,1.652-1.101,2.111
		c0.092,0.458,0.229,0.412,0.595,0.504c0.368,0.092,0.277-0.275,0.368,0.092c0.092,0.367,0.046,0.734,0.092,1.009
		c0.046,0.275,0.229,0.414,0.414,0.505c0.184,0.092-0.047,0.229,0.045,0.459c0.091,0.229-0.045,0.183,0.275,0.412
		c0.321,0.229,0.275,0.414,0.229,0.873c-0.046,0.457,0.229,0.688,0.689,0.779c0.458,0.092,1.789,0.229,2.339-0.092
		c0.55-0.32,0.688-0.274,1.055,0.046c0.368,0.321,0.733,0.275,0.642,1.055c-0.018,0.154-0.032,0.278-0.045,0.378
		c-1.203,1.153-2.255,2.365-2.783,3.461c0,0-0.796,0.856,0.061,0.427c0.35-0.175,0.433,0.246,0.411,0.882
		c-0.042,0.085-0.06,0.147-0.01,0.186c-0.029,0.479-0.104,1.047-0.171,1.573c-0.145,0.789-0.354,1.852-0.354,2.13
		c0,0.43-2.384,6.546-2.384,6.913c0,0.039,0.01,0.073,0.028,0.103l-2.353,0.126c0,0-0.032,0.071-0.075,0.19
		c-0.037-0.023-0.154-0.083-0.354-0.083c0,0-0.778-1.331-1.283-1.789c-0.506-0.459-2.111-0.963-2.478-1.561
		c-0.367-0.596-0.918-0.871-1.146-0.596c-0.229,0.275,0.413,1.238,1.009,1.651c0.596,0.414,0.826,0.825,0.458,1.056
		c-0.367,0.229-0.871,0.733-1.146,0.687c0,0-1.33,0.07-1.238-0.365c0.09-0.436,0.229-0.527,0.229-0.666
		C317.355,44.049,317.126,43.773,316.896,43.957z"/>
	<path id="XMLID_681_" fill="#442F7C" d="M359.184,42.321c-0.016,0.433-0.039,1.592,0.042,2.081c0.08,0.489,0.021,0.769,0.287,1.077
		c0,0,0.164,0.434,0.471,0.533c0.307,0.101,0.401,0.52,0.708,0.62c0.306,0.1,1.099,0.48,1.419,0.692
		c0.32,0.213,0.762,1.067,1.276,1.391c0.027,0.017,0.05,0.033,0.075,0.05c-0.023,0.298-0.041,0.575-0.052,0.819
		c-0.018,0.095-0.092,0.57,0.005,1.042c0.069,1.108-0.418,1.614,0.208,2.747c0.653,1.181,2.827,3.293,3.543,3.759
		c0.279,0.187,0.279,0.187,0.279,0.187s0,2.796-0.436,3.914c-0.435,1.119-0.279,1.336-0.341,1.522
		c-0.062,0.188-0.031,0.404,0.155,0.529s0.218,0.435,0.218,0.435s-0.715,10.75-0.527,11.03c0.013,0.02,0.028,0.035,0.043,0.052
		c-0.202,0.251-0.313,0.282-0.014,0.195c0.383-0.109,0.188,0.119,0.348-0.038c0.108,0.013,0.201,0.012,0.243,0.038
		c0.093,0.064,0.186,1.058,0.218,1.15c0,0,1.304,9.85,1.926,16.686c0.621,6.836,1.367,12.429,2.237,15.535
		c0.87,3.107,0.869,4.351,1.49,5.717c0.623,1.368-0.373,1.74,0,2.734c0.374,0.995,0.995,0.869,1.491,1.119
		c0.498,0.248,0.002,0.993-0.496,1.49c-0.498,0.498-4.475,2.486-6.463,2.238c0,0-1.492-0.373-1.492,0.994
		c0,1.366,0.87,1.366,1.739,1.491c0.871,0.124,16.406,0,16.406,0s0.498,0.124,0.498-0.498c0-0.62-0.87-2.235-0.747-2.982
		c0.125-0.745-0.622-2.61-0.622-2.61s0.747-0.745,0.995-1.366c0.023-0.054,0.027-0.119,0.023-0.189
		c0.049-0.384-0.068-0.851-0.303-1.271c-0.465-0.84-0.931-1.958-1.397-3.822c-0.03-0.122-0.059-0.248-0.085-0.378
		c-0.152-1.659-0.319-3.905-0.436-5.827c-0.013-0.438-0.023-0.885-0.038-1.346c-0.019-0.607-0.06-1.131-0.112-1.582
		c-0.007-0.248-0.011-0.459-0.011-0.624c0-1.729-0.941-4.308-1.185-6.012c-0.025-0.314-0.044-0.605-0.057-0.872
		c0.008-1.513,0.127-2.46,0.247-3.059c0.125-0.621,0.747,4.973,1.617,7.333s1.987,4.846,2.484,7.581
		c0.498,2.734,0.373,3.232,0.498,5.468c0.125,2.238,0.622,1.368,0.745,2.859c0.125,1.491-0.62,0.87-0.372,2.485
		c0.249,1.616,0.249,0.994,1.119,2.238c0.87,1.242,0.621,0.62,0.87,1.242c0.249,0.621-0.498,1.74-0.498,2.61s0,0.87,0,0.87h8.328
		c0,0,1.242-2.238,0.622-3.604c-0.622-1.368-0.622-1.491-0.622-2.486c0-0.994-0.373-2.857-0.25-3.977
		c0.125-1.119-0.746-7.954-0.746-8.948c0-0.996-0.87-3.854-0.745-5.967c0.125-2.112-1.492-8.201-2.112-8.947
		c-0.229-0.273-0.474-0.498-0.706-0.72c-0.064-0.068-0.13-0.135-0.2-0.199c-0.313-0.323-0.581-0.673-0.71-1.194
		c-0.249-0.993-0.621-1.865-0.621-2.983s-0.374-1.118-0.126-2.733c0.25-1.616,0.25-3.977,0.25-4.972c0-0.994,0-3.604,0-5.219
		c0-1.617,0.124-2.734,0.124-3.604s4.227-1.491,5.221-2.486c0.994-0.994-2.61-16.778-3.231-20.134c0,0,2.235,0,2.609-4.599
		c0.372-4.598-2.238-11.558-2.238-12.054c0-0.498-2.486-6.464-3.976-6.713c-1.492-0.248-5.095-0.684-6.089-0.435
		c-0.994,0.249-2.089,0.727-2.548,0.497c-0.329-0.164-1.382-1.197-1.883-1.269c-0.158-0.084-0.372-0.193-0.606-0.292
		c0.113-0.18,0.269-0.66,0.097-1.889c-0.249-1.771-0.56-1.491-0.591-2.765c-0.03-1.274-0.124-1.989-0.931-2.89
		c-0.808-0.901-1.678-2.206-2.237-2.766c-0.56-0.56-1.803-0.188-2.455-0.777s-0.249-0.59-1.057-0.684
		c-0.808-0.094-3.199-0.31-4.97,0.871c-1.772,1.18-3.605,4.038-3.605,4.038c-0.715,1.306-1.086,3.263-0.838,4.568
		c0.249,1.305,0.901,2.175,1.181,2.299s-1.336-1.491-0.809-2.704c0.529-1.211-0.03,0.622,0.591,1.15
		c0.622,0.529,0.994,0.529,1.119,0.87c0.124,0.342,0.093,0.746-0.031,1.182c-0.125,0.435-0.373,0.684-0.188,0.87
		c0.188,0.186,0.404,0.123,0.497,0.278c0.094,0.156,0.125,0.374,0.25,0.652c0.124,0.28,0.279,0.467,0.435,0.497
		c0.154,0.032-0.031,0.343,0.093,0.466c0.125,0.125,0.186,0.032,0.436,0.404c0.248,0.373,0.341,0.745,0.434,1.181
		c0.093,0.435,0.404,0.529,0.87,0.622c0.466,0.094,1.367-0.063,2.486-0.373c1.118-0.312,1.678,0.063,2.05,0.684
		c0.248,0.412,0.304,0.592,0.359,0.738c-0.01,0.005-0.017,0.007-0.017,0.007s0.299,1.085,0.071,2.187
		c-0.08,0.12-0.185,0.252-0.319,0.393c-0.683,0.716-3.294,3.387-3.698,3.916c-0.404,0.528-0.713,0.713-1.21,1.087
		c-0.498,0.373-0.901,0.714-0.964,0.993c-0.061,0.28-0.497,2.796-0.436,3.886c0.024,0.403,0.052,0.78,0.082,1.108
		c-0.663-0.095-1.424-0.121-2.256,0.009c-0.019,0.004-0.037,0.013-0.057,0.022c-0.123-0.071-0.269-0.121-0.374-0.181
		c-0.195-0.112-0.484-0.646-0.637-0.786c-0.153-0.14-0.613-0.2-0.798,0.162c-0.241,0.478,0.163,0.798,0.204,0.951
		C359.982,41.796,359.199,41.888,359.184,42.321z M364.02,42.919c-0.011,0.153-0.029,0.348-0.049,0.574
		c-0.125,0-0.252-0.001-0.377-0.003c-0.218-0.339-0.353-0.648-0.586-0.67c-0.261-0.024-0.41-0.122-0.516-0.248
		C363.023,42.667,363.634,42.763,364.02,42.919z"/>
	<path id="XMLID_676_" fill="#442F7C" d="M410.825,120.645c-0.369,0.247-2.652,1.851-3.331,1.727
		c-0.679-0.123-2.346-0.062-2.593,0.063c-0.245,0.123-0.615,0.803-0.492,0.986c0.123,0.187,1.541,0.556,1.788,0.681
		c0.247,0.122,5.308,0.493,5.678,0.431c0.37-0.062,2.715-1.049,2.837-0.739c0.124,0.309,0.124,0.678,0.124,0.678
		s5.739-0.124,5.862-0.494c0.123-0.369-0.123-2.962-0.063-3.579c0.063-0.616,0.124-0.987-0.122-1.356
		c-0.247-0.37-0.803-0.433-0.494-0.803s0.369-0.123,0.369-0.678c0-0.557-0.555-0.679-0.616-1.542
		c-0.062-0.865-0.309-0.187-0.124-1.79c0.186-1.604,0.803-9.688,0.495-12.834c-0.31-3.147-0.063-3.271-0.063-4.011
		c0-0.741-0.37-1.852-0.37-2.716c0-0.863,0.74-0.925,0.556-2.221c-0.186-1.297,0.369-11.908,0.493-12.711
		c0.489,0.029,1.892,3.983,2.679,8.498c0.117,0.749,0.228,1.519,0.322,2.237c0.519,4.709,0.231,10.359,0.484,11.972
		c0.034,0.22,0.082,0.466,0.137,0.73c0.023,0.338,0.051,0.617,0.08,0.812c0.247,1.665,1.234,5.552,1.543,7.034
		c0.308,1.481,0.863,3.578,0.122,4.196l-0.622,0.352c-0.438,0.151-0.753,0.105-0.796,0.451c0,0-0.371,1.879-0.095,2.436
		c0.002,0.151,0,0.301,0.002,0.454c-0.138,0.346-0.475,0.617,0.031,0.75c0.062,0.739,0.309,0.555,0.37,0.987
		c0.06,0.396-2.918,1.846-2.634,2.147c-0.147,0.185-0.268,0.437-0.268,0.752c0,0.557,0.309,0.494,0.494,0.557
		c0.186,0.061,1.728,0.307,1.914,0.307c0.185,0,5.614,0.187,6.415,0.124c0.803-0.062,1.112-0.493,1.112-0.493l0.062,0.679
		l1.172-0.063c0,0,0.123-1.541,0.123-1.975c0-0.432-0.123-1.419-0.123-2.035c0-0.617-0.493-1.667-0.185-1.975
		c0.308-0.309,0.556-0.678,0.801-1.173c0.247-0.494,0.371-19.622,0.371-22.398c0-2.775-0.803-6.664-1.049-8.328
		c-0.247-1.667,0.09-4.031,0.309-5.122c0.062-0.31,0.369-4.689,0.369-6.171c0-1.178-0.156-5.795-0.22-7.631
		c0.05-0.171,0.109-0.31,0.189-0.39c0.079-0.079,0.196-0.231,0.332-0.422c1.229-0.222,2.367-1.148,2.476-2.169
		c0.028-0.274-0.017-1.149-0.102-2.332c0.396-1.029,0.778-2.042,0.846-2.22c0.509,0.441,1.014,0.88,1.014,0.88l1.604-1.543
		c0,0-0.128-0.109-0.337-0.285l0.554,0.409c0,0,0.555-0.093,0.739-0.833c0.186-0.74,2.593-3.609,3.056-4.627
		c0.462-1.02,2.034-3.519,2.22-3.889c0.186-0.369,0.094-1.943,0-2.684c-0.093-0.74-0.37-1.943-0.833-2.777
		c-0.461-0.832-2.868-6.479-3.239-7.404c-0.369-0.925-1.111-2.405-1.758-3.331c-0.648-0.927-0.952-2.229-0.802-3.24
		c0.124-0.833-0.494-1.851-0.494-1.851s-1.389-0.647-2.129-1.109c-0.74-0.464-6.108-2.131-7.311-2.407
		c-0.658-0.152-1.178-0.801-1.514-1.358l0.031,0.062c0.01,0.028,0.015,0.059,0.015,0.094c-0.016-0.052-0.033-0.107-0.053-0.166
		c0.003,0.003,0.005,0.008,0.007,0.011l-0.008-0.017c-0.197-0.616-0.568-1.604-0.938-1.884c-0.151-0.408-0.421-1.203-0.318-1.508
		c0.139-0.417,0.462-0.232,0.555-0.648c0.094-0.415,0.37-2.544,0.926-3.609c0.555-1.063,0.555-3.331,0.417-4.766
		c-0.14-1.435-1.436-2.686-2.268-3.055l0.462-0.092c0,0-0.693-0.047-0.879,0.046c-0.186,0.092-0.509-1.065-0.509-1.065
		s0.092,0.417-0.093,0.648c-0.185,0.232-0.833-0.555-1.99-0.462c-1.156,0.092-2.684,0.185-2.684,0.185
		c-1.897,0.416-2.915,2.083-2.915,2.083s0.369-0.141,0.462,0.046c0.094,0.185-1.387,1.063-1.896,4.118c0,0-0.323,1.25-0.323,1.667
		c0,0.415,0.462,0.554,0.416,0.879c-0.047,0.323,0.369,0.369-0.37,1.202c-0.74,0.833-0.232,0.881-0.094,0.972
		c0.139,0.094,0.139,1.203,0.232,1.619c0.093,0.417,0.277,0.232,0.277,0.417c0,0.187-0.046,0.371,0.185,0.648
		c0.232,0.277,0.232,0.463,0.324,0.832c0.093,0.371-0.092,0.834,0.231,1.343c0.323,0.51,1.573,0,2.545,0.694
		c0,0,0.232,0.37,0.232,0.51c0,0-0.128,0.462-0.351,1.16c-0.193,0.371-0.746,1.363-1.27,1.661c-0.647,0.371-5.692,3.749-5.97,3.934
		c-0.278,0.186-0.788,0.232-0.973,0.556c-0.185,0.324-0.602,0.509-0.556,0.879c0.046,0.371-1.294,2.129-1.34,2.915
		c-0.047,0.787-0.88,4.32-1.297,5.802c-0.416,1.48-1.126,5.29-1.357,6.17c-0.231,0.879,0.047,1.788-0.186,2.344
		c-0.231,0.556-0.216,1.419-0.492,1.512c-0.279,0.094-0.648,0.37-0.604,0.51c0.048,0.139-0.555,2.685-0.646,3.286
		c-0.093,0.601-0.539,4.812-0.539,5.184c0,0.241,0.587,0.502,1.292,0.603l-0.121,1.926c0,0,0.284-0.093,0.702-0.205
		c-0.225,0.12-0.46,0.268-0.702,0.451c0.37,1.235,0.37,2.16,0.557,3.332c0.184,1.173,0.739,3.764,0.925,4.752
		c0.185,0.987,0.432,1.975,0.616,1.789c0.187-0.185,0.494-0.247-0.061-3.455c0,0,0.01-0.046,0.026-0.116
		c0.213,0.373,0.888,0.621,1.053,1.196c0.185,0.647-0.185,3.008-0.278,3.702c-0.093,0.693,0.278,4.674,0.603,6.107
		c0.324,1.436,1.619,7.729,1.989,9.812c0,0,1.604,8.668,1.42,14.716c-0.185,6.047-0.679,8.083-0.432,8.884
		c0.247,0.803,0.679,2.717,0.74,3.087c0.061,0.37-0.247,0.925-0.74,1.542C411.689,119.718,411.196,120.396,410.825,120.645z
		 M434.951,47.712c0.438-0.485,1.696-6.54,1.974-6.169c0.084,0.11,0.355,0.699,0.691,1.464c0.514,1.274,1.134,2.985,1.408,3.533
		c0.431,0.862,0.616,1.542,0.556,1.975c-0.028,0.188-0.229,0.837-0.429,1.46c-0.736,1.296-2.729,5.713-3.093,6.522
		c-0.256-2.737-0.49-5.083-0.49-5.083C435.661,50.859,433.778,49.008,434.951,47.712z M409.668,63.985
		c-0.007,0.025-0.022,0.075-0.044,0.143C409.652,64.038,409.668,63.985,409.668,63.985s-0.262-0.354-0.324-0.601
		c-0.025-0.107-0.322-0.343-0.813-0.449c0.404-0.019,0.764,0.015,1,0.141l0.355-2.134c0.182-0.045,0.304-0.075,0.341-0.084
		C409.988,62.232,409.717,63.791,409.668,63.985z M410.594,58.71c-0.001,0.012-0.004,0.025-0.007,0.037
		c-0.007,0.05-0.021,0.131-0.04,0.239c0.017-0.095,0.03-0.174,0.04-0.239C410.597,58.695,410.6,58.679,410.594,58.71z"/>
	<path id="XMLID_917_" fill="#442F7C" d="M218.658,118.061c-0.088,0.523-0.437,0.698-0.612,0.959
		c-0.174,0.263-0.959,0.786-1.396,0.873c-0.436,0.088-1.657,0.263-2.268,0.698c-0.611,0.437-1.047,1.047-0.785,1.222
		c0.261,0.175,1.22,1.134,4.535,1.046c3.316-0.087,8.9-0.348,8.9-0.348l0.086-1.658l0.174-0.349c0,0-0.436-3.229-0.174-3.49
		c0.262-0.262,1.047-0.087,1.483-1.048c0.437-0.959,4.101-9.421,4.974-15.006c0.871-5.582,0.959-6.455,1.134-6.979
		c0.174-0.521,2.269-7.327,2.706-8.2c0.288-0.579,0.5-1.427,0.739-1.958c0.166-0.217,0.32-0.381,0.426-0.484
		c0.418-0.014,0.672,1.321,0.929,1.831c0.261,0.523,0.61,5.322,0.698,6.37c0.085,1.046,0,4.273,0.349,5.059
		c0.348,0.786-0.088,2.706-0.174,3.665c-0.089,0.959,0.086,8.113,0.086,9.945s-0.261,4.1-0.261,5.147
		c0,1.047-0.175,2.529-0.088,2.879c0.088,0.349,0.873,0.61,0.873,0.959c0,0.351-0.261,2.618-0.261,2.618s0.785,0.959,1.744,0.872
		c0.96-0.088,7.765-0.609,7.765-0.609l-0.175-1.92c0,0,0.61-1.048,0.698-1.31s-2.269-4.624-2.181-5.584
		c0.087-0.959,1.309-6.543,1.134-9.944c-0.174-3.403,0-12.39,0.088-14.483c0.087-2.093-0.088-3.401,0.087-3.925
		c0.174-0.524,0.088-0.785,0.349-1.222c0.261-0.437,0.436-5.934,0.698-6.107c0.018-0.011,0.055-0.108,0.11-0.278
		c0.172,0.023,0.344,0.024,0.5-0.013c0.757-0.174,1.279,0.815,1.628,0.932c0.351,0.116,5.585,0.175,7.096-0.116
		c1.512-0.292,2.559-0.117,3.257-0.407c0.698-0.292,3.489-0.989,4.129-1.222c0.641-0.232,0.699-0.232,0.873-0.465
		c0.174-0.233,0.116-0.583-0.465-0.989c-0.581-0.407-0.697-0.988-0.814-1.803c-0.116-0.815-0.349-1.629-0.583-2.27
		c-0.233-0.639-0.755-1.221-0.988-1.744c-0.232-0.523-0.872-3.548-0.93-4.246c-0.059-0.697-1.047-7.211-1.28-7.968l-0.348-0.291
		c0,0-0.012,0.008-0.032,0.021c0.433-0.987,0.821-1.819,1.02-2.086c0.524-0.696,0.436-1.395,0.785-1.83
		c0.349-0.438,0.524-1.396,0.61-2.007c0.088-0.611-0.173-1.047,0.349-1.833c0,0,0-0.436-0.261-1.046
		c-0.261-0.611-2.269-6.369-2.792-7.329c-0.523-0.959-1.308-2.269-1.308-2.879s-0.349-2.182-0.697-3.229
		c-0.349-1.046-0.612-1.395-0.525-2.268c0.088-0.873-1.046-2.007-1.134-2.53s-0.349-0.96-0.61-0.96
		c-0.041,0-0.219-0.002-0.489-0.007l0.082-0.109c0,0-1.918-0.291-2.907-0.232l-0.289,0.257c-1.389-0.055-2.702-0.138-2.939-0.257
		c-0.523-0.262-2.094-0.524-2.269-0.784c-0.143-0.216-0.871-0.898-1.13-1.138c-0.126-0.396-0.876-0.825-1.26-1.237
		c-0.111-0.182-0.202-0.34-0.227-0.418c-0.086-0.262,0.087-0.523,0.261-0.959c0.175-0.437,0.088-0.786,0.349-1.31
		s0.436-2.53,0.698-3.489c0.261-0.959-0.175-5.758-2.094-7.502c-1.919-1.745-5.321-2.095-6.543-2.008
		c-3.056,0.219-3.402,1.745-4.013,2.094c-0.61,0.35-0.959,0.524-0.959,0.524s0.261,0.349-0.263,0.784s-1.483,1.222-1.308,2.618
		c0.173,1.396-0.437,3.838,1.395,6.806c0,0,1.572,1.307,2.269,1.918c0.698,0.61,1.746,2.27,1.746,2.879
		c-0.175,0.175-0.436,1.134-0.436,1.134c-0.262,0.35-1.31,1.134-2.355,1.658c-1.047,0.524-2.618,1.745-3.664,2.094
		c-1.047,0.35-2.183,0.698-2.532,0.96c-0.349,0.262-0.698,1.047-0.698,1.047s-1.046,4.711-1.57,6.804
		c-0.523,2.095-2.356,11.169-2.705,13.611c-0.349,2.441-1.571,10.032-2.006,11.167c-0.437,1.134-0.988,5.438-0.988,5.438
		s0.122-0.017,0.329-0.044c-0.081,0.284-0.154,0.576-0.154,0.684l0.261,0.291c0,0,0.053-0.01,0.145-0.026
		c-0.302,0.819-0.756,2.101-0.756,2.353c0,0.379,0.292,0.814,0.407,1.163c0.117,0.35,0.553,1.919,0.64,2.007
		c0.088,0.087,0.902,0.581,1.25,0.64c0.35,0.059,1.455,0.292,1.747,0.292c0.29,0,0.668-0.029,0.668-0.029s0.045-0.075,0.1-0.246
		c-0.349,2.752-1.126,8.511-1.205,10.074c-0.088,1.745-0.61,4.101-0.959,5.584c-0.35,1.482-0.262,2.704-0.262,2.704
		s-0.698,2.53-1.046,3.577c-0.349,1.047-1.747,6.805-1.92,7.939c-0.175,1.134-1.222,4.886-1.134,5.584
		c0.086,0.696-0.263,1.744-0.612,2.18C218.833,116.229,218.745,117.537,218.658,118.061z M255.038,47.133
		c0.523-0.436,0.523,0.349,1.307,0.523c0.786,0.175,1.484,0.611,1.833,1.309c0.349,0.698,0.261-0.436,0.349,0.698
		c0.086,1.135,0.349,0,0.086,1.135c-0.261,1.134-0.523,0.697-0.436,1.657c0.086,0.959,0.086,0.873-0.262,1.744
		c-0.349,0.873-0.349,0.349-0.522,1.396c-0.175,1.047-0.437,0.698-0.523,1.134c-0.006,0.027-0.024,0.073-0.052,0.135
		c-0.01,0.005-0.021,0.01-0.031,0.016c-0.291-0.037-0.609-0.095-0.781-0.126c0.011-1.086-0.439-1.793-0.358-2.119
		c0.086-0.348-0.61-1.221-0.61-1.918s-0.437-2.007-0.263-3.315C254.95,48.092,254.515,47.569,255.038,47.133z M225.346,77.188
		c-0.074,0.102-0.596,0-0.8-0.014c-0.204-0.016-0.552-0.175-0.61-0.263c-0.059-0.087,0-0.727,0.014-0.974
		c0.014-0.247-0.043-0.771-0.043-0.93c0-0.16,0-0.38,0.161-0.467c0.159-0.086,0.275-0.262,0.508-0.29
		c0.363-0.043,0.522,0.13,0.581,0.305s0,0.625-0.014,0.872c-0.016,0.247-0.014,0.975,0.029,1.192
		C225.215,76.839,225.419,77.086,225.346,77.188z M226.262,71.527l0.596-0.199c0,0-0.032-0.697-0.084-1.062
		c0.019-0.006,0.04-0.01,0.055-0.015c0,0,0.378,0.697,0.378,1.396c0,0.625-0.422,2.935-0.697,4.979c0-0.078,0-0.155-0.002-0.238
		c-0.028-1.484,0-2.095,0.03-2.53c0.028-0.437,0.059-1.309-0.059-1.629C226.415,72.052,226.333,71.766,226.262,71.527z"/>
	<path id="XMLID_104_" fill="#442F7C" d="M479.029,35.404c0.112-0.194,0.14-0.39,0.501-0.806c0.362-0.418,0.445-0.668,1.364-1.502
		c0.918-0.835,0.918-1.198,0.584-1.308c-0.334-0.112-0.808,0.917-1.086,1.14c-0.277,0.223-0.444,0.195-0.612,0.168
		c-0.166-0.028,0,0,0-0.251s0.446-0.974,0.751-1.42c0.307-0.444,0.558-1,0.279-1.14c-0.279-0.139-0.584,0.557-0.835,0.917
		c-0.25,0.363-0.778,1.086-0.891,0.946c-0.11-0.139,0.418-1.558,0.641-1.892s0.862-0.862,0.361-1.029s-1.141,0.974-1.725,2.338
		c-0.584,1.362-0.751,1.084-1.029,1.14c-0.278,0.057,0.027-1.14,0.167-1.837c0.14-0.695,0.612-1.194,0.056-1.391
		c-0.556-0.193-1.225,2.143-1.252,3.088c-0.027,0.948-0.111,0.975-0.724,1.447c-0.611,0.474-1.475-0.083-1.475-0.083
		c-0.347-0.235-0.68-0.59-0.992-0.84c-0.203-0.705-0.537-1.371-1.08-1.9c-1.586-1.544-0.041-0.502-0.083-0.918
		c-0.009-0.084-0.146-0.264-0.368-0.504c0.012,0.011,0.02,0.017,0.02,0.017s0.724-2.281,1.392-2.782c0,0,1.001-1.001,2.059-1.445
		c0,0,0.5-0.557,0.056-1.17c0,0,0-2.448-0.167-3.004c0,0,0.39-0.334,0.501-0.834c0,0-0.835-0.724-1.336-1.225
		c0,0-0.278-0.501-0.167-0.89c0,0-0.111-0.335-0.39-0.558c0,0-0.945-2.113-1.892-3.004c0,0,0.278-0.223-0.056-0.611
		c-0.333-0.39-0.778-1.225-2.337-1.17c-3.675,0.132-6.063,1.781-7.122,2.782c-1.057,1.002-1.502,3.284-1.502,4.841
		c0,1.559-0.5,2.115-0.11,2.782c0,0-1.335,1.336-1.002,2.003c0.334,0.668,0.223,1.113,0.223,1.113s-1.279-0.333-1.614,0.833
		c-0.333,1.17-0.667,2.338-0.611,3.729c0.056,1.39-0.667,1.335-1.502,2.338c-0.835,1.001-1.28,1.779-0.891,2.447
		c0.39,0.667-0.056,1.224-0.611,2.615c-0.558,1.391-0.891,1.502-0.613,2.059c0,0-0.167-0.835,0.557-0.611
		c0.724,0.222-0.945,1.335-0.612,2.113c0,0,0.335-1.168,0.724-1.002c0.39,0.167-0.222,1.613,0.056,2.392
		c0.278,0.779,0.668,1.058,1.002,1.17c0,0-0.668-0.947-0.39-1.002c0,0,0.312,0.564,0.651,1.011
		c-0.001,0.391,0.044,0.791,0.155,1.215c0.418,1.585,0.584,2.086,0.334,3.839s-0.501,2.921-0.334,3.673
		c-0.158,0.18-0.061,0.816-0.017,1.051c-0.081,0.15-0.209,0.315-0.4,0.533c-0.584,0.668-1.419,3.173-1.586,5.26
		c-0.167,2.085-1.001,4.59-0.835,4.923c0,0,0.055-0.042,0.17-0.111c-0.077,0.613-0.177,1.579-0.142,2.255
		c0.056,1.057,0.835,3.337,1.892,5.006s1.112,2.393,1.279,4.062c0.168,1.67,0.557,5.01,0.779,5.898l0.334,0.89
		c0.161,0.004,0.347,0.001,0.551-0.006c0.504-0.007,1.321-0.025,2.315-0.06c0.281,0.444,0.583,0.971,0.583,1.179
		c0,0.39-0.89,5.786-1.001,6.677s0.056,1.558-0.056,1.947c-0.111,0.391-2.059,4.563-2.615,7.679
		c-0.556,3.114-0.223,6.453-0.223,8.512s-0.056,5.62-1.112,7.734c0,0-1.613,2.56-1.392,3.896c0,0,0.613,1.446,0.278,3.616
		l1.335,0.39c0,0,0.056-2.617,0.391-2.839c0.333-0.223,2.503,0.057,4.34,1.225c1.835,1.168,1.78,1.335,2.114,1.391
		c0.333,0.057,3.171-0.056,4.729-0.056c1.559,0,2.949-0.056,3.339-0.279c0,0,1.558-0.053,1.892-0.387c0,0,0.167-0.78-0.167-0.946
		c-0.334-0.169-2.226-0.891-2.615-1.893c-0.39-1.001-1.001-1.335-1.335-2.114c-0.334-0.778-0.501-1.557-0.668-2.56
		c-0.167-1.001-0.668-3.171-0.445-5.342c0.224-2.168,1.225-9.791,1.391-11.794c0.168-2.004,0.39-4.786,0.613-5.23
		c0.222-0.446,1.112-4.062,1.112-5.953s-0.612-3.173-0.557-3.617c0.047-0.374,0.409-1.774,0.589-2.506
		c0.324-0.118,0.597-0.247,0.803-0.387c0,0,0.167-2.616,0.333-4.729c0.168-2.114,1.559-8.569,0.612-12.241
		c0,0-0.02-0.018-0.053-0.05c-0.229-1.429-1.137-7.147-1.283-9.187c0,0-0.333-1.919,0.084-1.919c0.418,0,1.001,0.417,1.586,0
		c0.584-0.417,1.669-3.505,2.421-4.924c0.751-1.42,0.751-2.588,1.084-3.173c0.334-0.583,3.339-4.506,3.589-5.591
		c0,0-0.976-0.786-2.201-1.461c0.098-0.451,0.413-1.324,0.616-1.626C478.724,36.239,478.918,35.6,479.029,35.404z M463.924,117.194
		c0,0,0,0-0.223,0.222c-0.223,0.224-0.39,0.779-0.39,0.779c-1.279-0.724-1.391-2.947-1.391-3.728c0-0.778,1.058-4.117,1.058-4.117
		C464.369,112.91,463.924,117.194,463.924,117.194z M473.494,41.413c-0.334,0.835-0.751,1.754-0.751,1.754s-0.418-2.504-0.418-2.921
		c0,0,1.169-1.962,1.127-3.382c-0.013-0.453-0.001-1.042-0.03-1.682c0.136,0.035,0.295,0.083,0.462,0.166
		c0.333,0.167,1.112,1.892,1.112,1.892S473.827,40.579,473.494,41.413z"/>
	<path id="XMLID_102_" fill="#442F7C" d="M518.787,50.615c0.319,0.078,0.622,0.246,1.672,0.438c1.164,0.216,1.195,0.276,2.023,0
		c0.827-0.275,1.256-0.275,2.053-1.378c0.798-1.104-0.092-3.22-0.03-3.68c0.062-0.461-0.03-1.073-1.042-1.87
		c-0.782-0.67-2.79-3.557-3.034-3.893c-0.246-0.338-0.214-0.554-0.368-1.014c-0.154-0.458-1.35-2.146-1.502-3.063
		c-0.154-0.921-0.828-1.779-0.828-1.779c-1.088-0.753-7.18-3.081-8.265-3.493c-0.326-0.881-1.098-2.489-1.285-2.715
		c0,0,0,0,0.045-0.275c0.048-0.276,0.736-0.828,0.736-0.828c1.058-1.656,1.425-3.771,1.472-4.277
		c0.046-0.505-0.093-1.379-0.047-1.608c0.047-0.23,0.414-2.299,0.507-2.851c0.092-0.553,0-1.197,0.184-1.335s0.138-0.505,0.23-0.874
		c0.093-0.367-0.23-1.104-0.23-1.104s-0.139-0.413-0.459-0.782c-0.323-0.367-0.092-0.229-0.553-0.873c-0.46-0.643,0,0-0.414-0.23
		c-0.413-0.229-0.322-0.183-0.644-0.643s-0.321-0.231-0.782-0.414c-0.46-0.184-0.275-0.092-0.643-0.6
		c-0.368-0.504-0.277-0.137-0.92-0.274c-0.645-0.138-0.736-0.046-1.15-0.598s-0.873-0.093-1.471-0.046
		c-0.599,0.046-0.415,0.276-0.874,0.229c-0.46-0.046-0.92,0.23-1.333,0.46c-0.414,0.229-1.059,0.69-1.656,0.736
		s-1.196,0.782-1.563,1.148c-0.367,0.368-0.092,1.012-0.138,1.519c-0.046,0.505-0.276,1.012-0.46,1.425
		c-0.184,0.415,0.138,0.967,0.184,1.381c0.047,0.413-0.046,0.55-0.184,1.058c-0.139,0.506-0.139,0.965,0.046,1.793
		s0.276,0.597,0.689,1.287c0.414,0.69,0.414,0.966,0.461,1.518c0.046,0.551,0.274,0.46,0.688,0.967
		c0.415,0.506-0.132,1.829,0.048,1.93c0,0-0.443,0.001-0.645,0.096c-0.506,0.021-1.66,1.382-1.902,1.653
		c-0.244,0.275-1.103,0.091-1.624,0c-0.521-0.094-2.729-0.031-4.23,0.122c-1.501,0.153-1.349,0.123-2.269,1.104
		c-0.92,0.981-0.398,5.55-0.337,7.326c0.062,1.778,0.766,1.166,1.287,2.883s0.583,1.073,0.89,2.574
		c0.307,1.503,0.429,1.564,0.767,2.606c0.337,1.042,0.826,1.809,1.257,2.667c0.429,0.857,0.029,1.502,0,2.238
		c-0.03,0.735-0.675,2.819-0.828,3.28c-0.154,0.459-0.491,1.041-0.583,1.257c-0.092,0.214,0.338,1.349,0.308,1.809
		c-0.03,0.459-2.606,8.676-2.392,9.259c0.136,0.37,0.95,0.837,1.575,1.343c0.189,0.165,0.358,0.324,0.488,0.464
		c0.118,0.143,0.203,0.288,0.235,0.431c-0.035,0.112,0.063,0.395,0.226,0.746c0.128,0.34,0.267,0.658,0.419,1.338
		c0.244,1.104,0.275,5.519,0.367,6.898s0.338,6.04,0.767,8.309c0.429,2.27,0.244,1.38,0.398,2.697c0.153,1.318,0,3.618,0.153,5.059
		c0.153,1.441-0.552,1.472-0.735,2.238c-0.185,0.767-0.185,1.348-0.307,2.575c-0.122,1.227-0.122,6.131,0.092,8.921
		s0.797,4.63,0.827,5.272c0.03,0.644-0.092,1.472-0.185,2.392c-0.091,0.92,0.858,3.31,0.247,3.924
		c-0.614,0.614-1.166,2.301-0.522,3.251s0.859,2.115,0.828,2.268c-0.03,0.153-0.185,0.369-0.245,0.645
		c-0.061,0.276,0.276,0.673,0.307,0.827c0.031,0.152,0,1.042,0,1.042h11.711l0.306-0.368c0,0,0.431,0.154,0.921,0.368
		c0.49,0.215,4.567,0.185,6.193-0.029c1.624-0.216,2.974-0.614,3.156-0.921c0.184-0.306-0.092-0.551-0.214-0.521
		c-0.122,0.032-0.399-0.397-0.399-0.397c-0.215-1.104-2.573-0.583-3.861-0.553c-1.288,0.032-1.656-0.336-1.778-0.489
		c-0.123-0.152-1.319-2.208-1.564-2.76c-0.245-0.553,1.35-1.655,1.687-2.606c0.337-0.95-0.368-3.004-0.399-4.937
		c-0.029-1.931,2.023-5.854,2.27-6.774s1.625-7.021,1.778-7.603c0.151-0.582,0.03-1.227,0.06-2.084
		c0.032-0.859,0.063-1.228-0.06-2.637c-0.124-1.411,0.215-2.3,0.338-2.975c0.122-0.674,0.428-2.36,0.58-3.678
		c0.156-1.318,0.308-3.129,0.492-4.938c0.184-1.808-0.062-3.77-0.152-4.966c-0.094-1.195,0-2.023,0.244-2.912
		c0.244-0.89-0.062-2.605-0.062-2.852c0-0.244,0.184-0.551,0.583-0.46c0.398,0.092,1.532,0.092,2.269-0.03
		c0.735-0.122,0.367-1.104,0.367-1.104c0-2.298-0.337-3.401-0.459-4.229s-0.675-3.832-0.706-4.201
		c-0.03-0.367-0.122-1.226-0.122-1.226s0.03-0.122,0.244-0.122c0.216,0,0.153-0.123,0.092-0.337
		c-0.061-0.215-0.52-1.901-0.766-2.606c-0.245-0.705-0.398-4.2-0.46-4.752c-0.007-0.065-0.013-0.14-0.02-0.22
		c0.178-0.137,0.331-0.25,0.433-0.301C517.628,51.128,518.652,50.677,518.787,50.615z"/>
	<path id="XMLID_101_" fill="#442F7C" d="M555.319,43.188c0.223-0.448,1.834-6.719,1.478-8.868c-0.359-2.148-1.837-2.327-2.912-2.91
		s-2.687-1.343-2.866-1.658c-0.179-0.313-0.313-1.433-1.029-2.014c-0.278-0.227-1.149,0.068-1.491,0.127
		c0.079-0.776,0.266-3.021,0.923-3.68c0,0,0.061-0.241,0.419,0c0.357,0.238,0.717-0.42,1.254-1.016
		c0.537-0.598,1.015-1.135,1.255-1.793c0.236-0.655-0.18-0.835-0.777-0.655c0,0,0.537-0.658,0.598-1.434
		c0.06-0.777,1.134-2.389,0.118-4.121c-1.014-1.731-1.552-2.209-3.284-2.985c-2.815-1.262-5.791,0.479-6.568,4.36
		c0,0-0.059,0.716-0.179,1.073c-0.119,0.358-0.896,0.657-0.836,1.136c0.059,0.478-0.061,2.029,0.299,3.164
		c0,0,0.059,2.269,0.178,2.509l0.12,0.239c0,0,0.005,0.027,0.016,0.071c-0.191,0.125-0.266,0.376-0.149,0.674
		c0.223,0.582,0.313,1.12,0.357,1.255c0,0-0.537-0.448-1.029,0c-0.27,0.268,0.134,0.805,0.134,0.805s-0.448,0-0.582,0.18
		c-0.135,0.18-0.089,0.582-0.089,0.582l-0.448,0.313c0,0-0.269,0.358-0.089,0.627c0.178,0.269,0.043,0.627,0.133,0.762
		c0.012,0.016,0.029,0.049,0.05,0.092c-0.065,0.033-0.13,0.063-0.183,0.087c-0.627,0.27-1.211,0.762-1.613,0.808
		c-0.402,0.043-1.075-0.046-2.329,0.581c-1.253,0.627-1.791,1.612-2.15,2.328c-0.356,0.718-2.731,8.106-2.909,8.734
		c0,0,1.836,0.852,2.553,1.208c0,0,0,2.012,0.03,2.928c-0.127,1.017-0.354,3.017-0.613,3.566c-0.358,0.762-1.074,2.643-1.119,3.404
		c-0.046,0.762-0.09,4.479-0.046,5.106c0.036,0.482-0.303,1.948-0.458,2.596c-0.146,0.293-0.253,0.567-0.304,0.808
		c-0.313,1.478-0.043,3.313,0.135,4.209c0.18,0.897,1.12,7.166,1.211,7.346c0.089,0.179,2.327,8.822,3.357,13.122
		c1.029,4.299,3.896,15.092,4.836,17.422c0,0,0.18,5.552,0.18,7.612s-0.18,5.867-0.18,5.867l0.271,0.358
		c0,0,0.045,2.866-0.271,3.359c-0.313,0.493-0.627,1.255-0.627,1.255s-3.76,0.268-3.582,1.164c0,0-0.402,0.806,3.582,0.806
		c0,0,0.986,0.357,5.645,0.135c0,0,0.135-0.539,0.224-0.808c0.089-0.268,0.046-1.297,0.046-1.297s1.118-1.032,1.656-0.852
		c0.537,0.179,0.762,0.895,0.448,1.837c-0.313,0.939-0.297,1.175-0.297,1.175h2.401c0,0-0.09-2.117,0.134-2.879
		c0.223-0.761,0.313-1.791,0.18-2.866c-0.135-1.075-0.762-0.985-0.673-1.119c0,0,0-0.896-0.537-2.599
		c-0.538-1.7-0.672-3.94-0.761-4.882c-0.091-0.939-0.269-2.775-0.134-4.522c0.134-1.745-0.135-3.18-0.135-3.896
		s-0.045-2.105,0.178-2.955c0.225-0.852,0.225-5.42-0.716-8.511c0,0-0.044-3.18,0.179-3.493c0.225-0.313,0.225-0.582,0.314-0.896
		c0.091-0.313-0.134-0.448,0.134-0.76c0.269-0.315,1.613-4.391,1.927-5.913c0.313-1.521,1.164-5.866,1.478-7.076
		c0.313-1.209,0.357-2.373,0.581-2.776s0.494-1.389,0.718-1.971c0.224-0.583,0.403-3.853-0.046-6.673
		c-0.448-2.821-1.433-4.344-1.88-5.285c0,0,0.326-0.892,0.493-1.493c0.407-0.143,1.318-0.534,1.209-1.194
		c-0.136-0.805-0.673-3.134-0.628-3.492c0.044-0.358-0.045-1.165,0.134-1.433c0.181-0.269,1.523-1.255,1.612-1.792
		c0.091-0.538,0.046-2.418,0.046-2.553C554.02,43.727,555.094,43.637,555.319,43.188z"/>
	<path id="XMLID_95_" fill="#442F7C" d="M581.621,50.814c0.094-0.139,0.148-0.648,0.168-0.849c0.081-0.049,0.176-0.056,0.252-0.037
		c0.175,0.045,1.046,1.22,1.046,1.22c0.218,0.436,1.481,2.568,3.222,2.132c0,0,1.308-0.043,1.743-1.218c0,0,0.043-2.96-0.263-3.7
		c-0.303-0.74-3.962-7.838-4.57-9.579c-0.609-1.741-1.132-2.831-0.437-4.659c0.697-1.828,1.088-2.742,1.045-2.917
		s-0.695-1.131-1.306-1.436c0,0-0.02,0.003-0.05,0.01c0.385-0.27,0.844-0.759,1.008-1.839c0.218-1.438-0.131-4.224,0.218-5.356
		c0.348-1.131,0.13-1.523-0.131-1.653c0,0,0.304-0.653-0.087-1.133c-0.393-0.479-1.003-0.869-1.003-0.869s0.567-1.524-1.174-2.396
		c-2.441-1.221-6.097-0.13-7.708,0.827c-1.61,0.959-3.134,3.7-3.177,5.53c-0.044,1.827,0.349,3.831,1.394,5.224l1.088,1.567
		c0,0-0.217,1.133-0.783,1.568c-0.504,0.387-0.458,0.842-1.115,1.029c-1.066-0.4-1.887-0.685-2.063-0.725
		c-0.347-0.081-0.727,0.035-0.969,0.139c-0.679,0.109-1.479,0.702-1.948,1.819c-0.566,1.35-1.045,3.875-1.045,5.182
		c0,1.308-0.13,7.445-0.087,8.533c0.044,1.088,0.174,2.352,0.13,2.961c-0.043,0.608,0.26,1.48,0.306,2.002
		c0.041,0.497,1.027,4.182,1.572,5.591c-0.209,0.505-0.57,1.463-0.57,1.463c-0.806,2.374-0.567,4.746-0.469,5.45
		c0.002-0.096,0.025-0.181,0.056-0.253c-0.01,0.144-0.018,0.293-0.026,0.444c-0.003-0.014-0.007-0.036-0.012-0.065
		c0.005,0.024,0.004,0.046,0.012,0.071c-0.037,0.676-0.053,1.395,0.004,1.841c0.13,1.045,0.391,4.137,0.913,5.269
		c0,0,0.393,1.437,0.436,2.787c0.042,1.301,0.246,3.693,0.572,4.527c-0.016,0.033-0.005,0.063,0.038,0.087
		c0.13,0.277,0.748,0.494,1.759,0.649c0.041,0.011,0.082,0.018,0.124,0.025c0.428,1.209,1.134,3.155,1.512,3.94
		c0.567,1.176,0.915,2.873,1.046,3.831c0.13,0.958,0.13,1.394-0.174,2.352c-0.305,0.958-2.309,4.093-2.873,6.836
		c-0.567,2.742-0.48,5.79-0.523,9.142c-0.044,3.354,0.088,5.878-0.436,6.445c-0.521,0.565-0.74,0.521-0.784,0.696
		c-0.043,0.174-1.437,2.046-1.349,3.396c0.087,1.348,0.783,1.393,1.088,4.049c0.305,2.654,0.435,4.117,0.435,4.117h0.436
		c0,0,0.263-4.117,0.48-4.074s0.653,1.22,0.653,1.61c0,0.393-0.263,1.829,0.39,2.046c0.653,0.219,4.138,0.828,6.836-0.13
		c0,0,0.262-0.565,0.35-0.697c0,0-0.087,1.064,0.349,1.108c0.436,0.042,2.176,0.567,5.399-0.131c0,0,0.652-1.717,0.303-2.369
		c-0.348-0.654-1.698-0.567-2.133-1.045c-0.436-0.479-1.088-2.438-1.219-4.354s-0.61-3.31,0-7.444
		c0.61-4.137,1.219-6.663,1.088-10.232c-0.13-3.57-0.348-6.052-0.13-6.53c0.218-0.479,0.608-1.742,0.478-2.961
		c0,0,0.61-1.873,1.176-3.265c0.49-1.209,1.113-4.973,1.271-6.175c0.658-0.036,0.943-0.086,1.064-0.171
		c0.706,0.448,0.016-0.012,0.016-0.012c0.263-0.218,0.263-0.218,0.263-0.218s-0.35-4.702,0.086-8.795c0,0,0.609-4.83-0.272-7.168
		c0.095,0.019,0.143,0.028,0.143,0.028s0,0-0.043-0.653s-1.394-4.572-1.698-5.225c-0.305-0.653-0.48-0.871-0.653-1.741
		c-0.113-0.569-0.301-0.878-0.382-1.12c-0.02-0.104-0.033-0.173-0.039-0.189c0-0.058,0.007-0.113,0.028-0.171
		c0.13-0.348-0.565-2.134-0.695-2.874c-0.112-0.627-0.066-0.536,0.03-0.732C581.381,51.052,581.56,50.907,581.621,50.814z
		 M573.247,116.63c-0.131-0.391-0.261-0.87-0.261-0.87c-0.13-1.046-0.393-5.095-0.304-6.793c0.087-1.698,1.784-5.921,1.784-5.921
		c1.35,9.753,0.696,10.275,0.696,10.275C573.465,113.757,573.379,117.021,573.247,116.63z M576.448,121.919
		c-0.109-0.065-0.966-0.379-1.088-0.462c-0.122-0.082-0.272-0.176-0.326-0.666c-0.056-0.489,0.38-1.062,0.38-1.062
		C576.571,120.805,576.559,121.989,576.448,121.919z M580.994,30.681c0.211-0.081,0.52-0.181,0.657-0.126
		c0.217,0.087,0.478,0.392,0.522,0.697c0.042,0.305-0.087,1.131-0.087,1.131s-0.801-1.2-1.138-1.37
		C580.971,30.917,580.986,30.806,580.994,30.681z M579.995,33.906c-0.39,0.175-0.652,0.262-0.565-0.826
		c0.088-1.088-0.087-1.48-0.827-1.394c0,0-0.043,1.176-0.131,1.611c-0.087,0.436-0.304,1.263-0.26,1.523
		c0.043,0.261,0.695,1.741,1.044,2.264c0.045,0.067,0.114,0.171,0.199,0.302c-0.303-0.105-0.645-0.184-0.896-0.214
		c-0.348-0.043-0.348-0.871-1.133-1.873c-0.092-0.117-0.272-0.257-0.517-0.411c0.053-0.206,0.55-2.098,0.822-2.549
		c0.377-0.624,0.044-1.061,2.554-0.683c0.232,0.072,0.667,0.247,0.667,0.77C580.953,32.948,580.388,33.733,579.995,33.906z"/>
	<g id="XMLID_93_">
		<path id="XMLID_94_" fill="#442F7C" d="M632,34.597c-0.097-0.646-0.968-2.613-1.131-4.227c-0.161-1.615-1.42-5.873-1.58-6.423
			c-0.16-0.548-2.26-1.129-3.679-1.388c-1.42-0.257-3.776-0.482-3.937-0.516c-0.156-0.031-1.086-2.028-1.672-2.299
			c-0.022-0.312-0.066-1.09,0.01-1.508c0.098-0.532,0.194-1.791,0.291-2.18c0.097-0.386,0.387-0.289,0.436-0.58
			c0.049-0.29,0.146-1.888-0.29-2.565c-0.437-0.678-0.194-2.808-2.228-4.551c-2.033-1.742-3.872-1.742-5.761-1.646
			c-0.678,0.035-1.742,0.532-2.227,1.017c0,0-0.28,0.36-0.477,0.315c0.133,0.054,0.479,0.169,0.67-0.025
			c0.242-0.242,0.388,0.146,0.097,0.436c-0.29,0.291-0.774,0.969-0.968,0.969c0,0,0.193,0.339,0.532,0.097s-0.532,0.727-0.483,1.113
			c0.048,0.388-0.242,0.774-0.242,0.774s-0.627,0.484-0.53,0.92c0.095,0.436,0.434,1.452,0.772,1.791s0.097,0.531,0.387,1.55
			c0.291,1.017,0.581,1.887,0.774,2.13c0.196,0.242-0.097,0.968,0.388,1.306c0.484,0.34,0.774,0,1.065,0.581
			c0.29,0.581,0.678,1.742,1.016,2.565c0.1,0.235,0.171,0.424,0.228,0.572c-0.272,0.224-0.337,0.812-0.309,1.541
			c0.033,0.774,0.066,0.839-0.095,0.969c-0.162,0.128-0.68,1.001-0.938,1.194c-0.257,0.193,0.13,0.258-0.805,0.289
			c-0.938,0.032-1.452,0.937-2.033,1.033s-0.451-0.227-1.325-0.064c-0.868,0.161-1.807,1.452-2.581,2.42
			c-0.771,0.969-0.935,2.517-1.579,3.194c-0.647,0.678-0.454,1.064-1.259,1.582c-0.808,0.515-1.195,0.838-1.195,1.162
			c0,0.32,0,0.708-0.097,0.838s-1.355,0.838-1.807,1.485c-0.451,0.645-1.064,1.87-1.129,2.354c-0.065,0.484-0.13,0.904-0.097,1.84
			c0.031,0.935,0.128,1.323,0.291,1.839c0.16,0.518,0,0.774,0.288,1.581c0.29,0.807,0.486,1.291,0.904,1.647
			c0.42,0.354,2.68,1.096,3.422,0.805c0.741-0.29,2.13-1.355,2.774-1.646s0.678-0.484,0.808-0.515
			c0.127-0.033,0.193,0.645,0.193,0.999c0,0.356-0.387,1.42-0.483,2.292c-0.098,0.871-0.228,1.063-0.324,1.58
			c-0.097,0.518-0.13,0.451,0.13,0.678c0.258,0.226,0.772,0.581,1.032,0.872c0.016,0.018,0.051,0.022,0.102,0.021
			c-0.073,1.459-0.293,5.469-0.555,6.883c-0.321,1.743,0.517,10.521,0.84,12.587c0.321,2.064,1.226,8.066,1.807,10.711
			c0.581,2.647,1.613,10.78,1.807,12.521c0.193,1.743,0.388,5.678,0.774,7.357c0.388,1.679,0.581,4.711,0.324,8.519
			c-0.261,3.808-0.194,6.13-0.261,7.229c-0.063,1.099-0.645,1.87-2.063,2.646c-1.419,0.773-4.453,0.967-5.419,1.419
			c-0.969,0.452-0.904,1.354-0.388,1.678c0.515,0.323,5.807,0.968,9.937,0c0,0,2.581-0.516,2.841-0.516l0.321,0.903
			c0,0,0.066,0.646,9.618,0.517c0,0,1.804-0.193,2.451-0.452c0,0,0.258-2.195,0.063-5.615c0,0,0.194-2.259,0.066-3.872
			c-0.13-1.612,0-10.907-0.387-14.907c-0.391-4.003-0.841-9.037-2.194-12.069c0,0-0.517-0.774-0.323-2.26
			c0.193-1.483,0.387-2.388,0.387-3.807s-0.387-3.81-0.323-5.099c0.063-1.292,0.26-2.647,0.518-3.938
			c0.257-1.291,0.774-2.516,1.031-3.551c0.258-1.031-0.58-1.548-0.257-3.549c0.321-2-0.969-12.906-0.904-14.068
			c0.01-0.192,0.022-0.359,0.035-0.508c0.115,0.281,0.182,0.532,0.448,0.443c0,0,0.548-0.258,1.099-0.55
			c0.548-0.289,0.484,0.228,0.774-0.548c0.29-0.774-0.614-2.485-0.451-3.033c0.161-0.549,0.645-0.904,0.451-1.549
			s-0.323-2.001-0.033-3.679c0.291-1.678,1.034-2.162,1.389-4.647c0,0-0.066-1.55,0.321-1.967
			C631.482,35.629,632.097,35.241,632,34.597z"/>
	</g>
	<path id="XMLID_618_" fill="#442F7C" d="M640.92,41.566c0,0.952-0.044,4.712-0.181,5.89c-0.135,1.179-0.996,2.13-0.725,2.855
		c0.272,0.724,0.771,1.449,1.178,1.676c0.408,0.226,1.495,0.951,2.355,2.174c0.861,1.223,2.039,3.08,2.629,3.669
		c0.343,0.344,0.872,1.072,1.55,1.755c-0.004,0.035-0.009,0.069-0.01,0.104c-0.091,2.447,0.544,6.614,1.268,9.694
		c0.725,3.081,0.997,3.171,1.178,3.806c0.182,0.635-0.634,2.084-0.544,3.172c0.091,1.087,0.273,2.446,0.273,3.623
		c0,1.179-0.363,0.996-0.726,1.631s0.182,1.179,0.182,1.903s0.09,2.719-0.182,4.621c-0.272,1.903-1.722,6.433-1.903,8.607
		c-0.181,2.175-1.269,22.652-1.269,22.652l1.088,0.362c-0.181,0.453,0.181,2.266,0.091,2.535c-0.091,0.274-0.181,1.723-0.181,1.723
		c0.634,0.454,5.707,0.544,5.707,0.544l0.453-0.363c1.088,0.363,6.705,0.635,7.43,0.454s1.903-0.362,1.903-0.362
		c0.815,0.182,3.806,0.182,5.709,0c1.901-0.182,4.349-0.634,4.349-0.634c-0.363-1.723-1.36-1.27-3.081-1.361
		c-1.722-0.089-3.715-1.085-4.258-1.449c-0.544-0.362-1.903-1.358-2.266-1.9c-0.362-0.546-2.356-3.173-2.446-3.626
		c-0.091-0.453,0.905-0.815,0.905-1.54s1.632-10.147,2.355-13.863c0.727-3.714,1.994-11.597,2.447-14.588
		c0.452-2.988,1.812-9.241,1.812-10.057s-0.181-3.805-0.361-5.164c-0.183-1.359-0.545-4.622-0.726-5.799
		c-0.181-1.178-0.634-6.796-0.634-7.34c0-0.385,0.09-1.632,0.015-2.393c0.011,0.027,0.028,0.039,0.062,0.029
		c0.142-0.035,0.874-0.481,1.251-0.74c0.208,0.202,0.373,0.341,0.439,0.341c0.206,0,0.188-1.694,0.183-2.304
		c0.052-0.167,0.111-0.302,0.181-0.369c0.315-0.317,0.95-0.363,1.585-1.088c0.231-0.265,0.524-0.736,0.828-1.239
		c0.678-0.707,1.349-1.496,1.68-2.145c0.473-0.237,0.936-0.466,0.936-0.466s-0.092-0.771,0.089-1.134
		c0.183-0.362,0.363-0.635,0.544-0.815c0.181-0.182,0.144-1.914,0.144-1.914l-0.559,0.922c0.356-0.608,0.707-1.204,0.868-1.333
		c0.303-0.242,2.357-0.302,2.598-0.363c0.242-0.06,0.303-0.301,0.544-0.482c0.241-0.181,0.785-0.664,0.785-0.664
		s0.544-0.242,0.605-0.484c0.06-0.241,0.181-0.725,0.421-1.269c0.242-0.543,0.847-1.389,0.665-1.752
		c-0.181-0.361-0.665-0.784-0.665-0.784s0.303-0.483-0.06-0.785c-0.361-0.303-0.846,0.544-0.846,0.544s-0.604-0.302-1.027-0.302
		c-0.423,0,0,0.785,0,0.785s0,0-0.362,0.119c-0.362,0.121-1.268,0.484-2.295,1.149c-1.026,0.664-1.328,1.329-1.752,1.992
		c-0.423,0.665-1.691,2.175-1.691,2.175c0,0.271,0.143,0.652,0.336,1.047c-0.236-0.433-0.4-0.838-0.336-1.047l0.091-0.317
		c0,0-1.585,1.677-2.31,2.312c-0.726,0.633-0.183,0.044-0.183,0.044s-0.317,0.272-0.679,0.318c-0.363,0.045-0.998,0.09-1.405,0.362
		c-0.407,0.271-0.498,0.091-0.633,0.091c-0.137,0-1.587-3.444-1.949-4.486c-0.104-0.301-0.247-0.613-0.401-0.925
		c-0.164-0.489-0.309-0.885-0.414-1.113c-0.124-0.271-0.308-0.66-0.52-1.11c-0.095-0.734,0.009-1.56-0.16-2.15
		c-0.181-0.635-0.905-1.541-1.313-2.039c-0.409-0.499-0.545-0.906-1.043-1.405c-0.007-0.007-0.015-0.017-0.022-0.023
		c-0.565-1.111-1.259-2.338-1.473-2.92c-0.316-0.859-0.946-1.896-1.58-2.083c-0.023-0.063-0.042-0.124-0.051-0.184
		c-0.046-0.317-0.09-0.633-0.361-0.86c-0.057-0.046-0.161-0.183-0.337-0.385c0.195,0.131,0.306,0.204,0.306,0.204
		c0.182-0.544,0.483-0.922,1.027-1.042s2.552,0.377,3.034,0.498c0.484,0.121,0.952-0.482,0.832-1.028
		c-0.121-0.542-0.183-0.604-0.062-0.965c0.121-0.362,0.423-0.483,0.303-0.724c-0.121-0.242-0.182-0.546,0.12-0.605
		c0.303-0.06,0.362-0.181,0.362-0.664s0-0.483,0-0.726c0-0.241,0.423,0,0.967,0s0.423-0.604,0.302-0.966
		c-0.121-0.363-0.725-0.907-0.725-1.208c0-0.303,0.181-1.39,0.181-1.632c0-0.24-0.361-0.544-0.542-0.846
		c-0.183-0.302,0.12-0.543-0.183-1.69c-0.302-1.149-1.208-2.356-1.51-2.78c-0.302-0.421,1.027-0.06,1.027-0.06
		c-1.087-1.51-4.288-3.201-6.524-3.382c-2.234-0.182-4.771,0.241-6.644,2.657c-1.873,2.415,0.06,7.31,0.06,7.31
		c0.304,0.966,0.665,2.115,0.847,2.778c0.181,0.664,0.209,0.655,0.423,0.785l-0.515,0.03c0,0-0.497,1.857-0.724,2.22
		s-2.357,2.039-3.354,2.447c-0.996,0.407-1.086,0.227-2.038,1.54c-0.951,1.313-2.401,3.94-2.447,6.658
		c-0.045,2.719,0.409,3.851,0.318,4.713C641.464,39.709,640.92,40.616,640.92,41.566z M678.624,37.315
		c0.846-0.121,0.563,0.536,0.563,0.536l-0.542,0.303c0,0-0.284-0.217-0.405-0.519C678.118,37.333,678.624,37.315,678.624,37.315z
		 M672.973,44.802l-0.076,0.123c0,0-0.002-0.002-0.006-0.008C672.916,44.882,672.943,44.844,672.973,44.802z"/>
	<path id="XMLID_615_" fill="#442F7C" d="M682.328,123.225c0.181,0.785,1.087,0.966,1.69,0.966c0.605,0,4.953,0.183,5.497,0.121
		c0.544-0.06,0.304-0.242,0.304-0.242s2.052,0.242,2.234,0.183c0.181-0.062,5.436-3.866,6.825-3.263
		c1.389,0.604,0.483,1.753,0.362,2.417c-0.121,0.663-0.121,0.663-0.121,0.663h2.175c0,0-0.242-2.416,0.121-3.382
		c0.363-0.967,0.423-1.51,0.242-2.054c-0.183-0.544-0.786-2.84-0.968-3.926c-0.181-1.087-1.449-9.847-1.328-15.888
		c0,0-0.665-2.597-1.087-5.073c-0.423-2.477-0.484-3.322-0.665-4.41c-0.181-1.087-1.269-1.933-1.269-2.234s0.181-3.624,0.242-3.865
		c0.06-0.242,4.409-8.154,5.074-10.752c0.663-2.598,1.569-4.471,1.569-7.61c0-3.142-0.724-7.31-0.966-8.398
		c0,0,0.699-0.833,0.438-1.678c0.055-0.271,0.079-0.486,0.044-0.557c0.182-0.119,0.846-0.725,1.087-1.086
		c0.003-0.003,0.005-0.007,0.007-0.01c0.139,0.079,0.277,0.158,0.416,0.234c1.631,0.907,2.357-1.675,2.357-1.675
		c1.177-1.903,1.357-5.074,1.449-6.07c0.065-0.721,0.098-1.804,0.032-2.635c0.056-0.034,0.088-0.053,0.088-0.053
		s0.061-0.968,0-1.391s0.362-2.055,0.362-2.717c0-0.665,0.785-1.27,0.785-2.054c0-0.786,0-2.356-0.543-3.263
		c-0.544-0.906-0.905-2.175-1.39-2.477s-2.175-0.967-2.598-1.208s-1.208-0.786-1.328-1.088s-0.182-1.69-0.423-1.872
		c-0.242-0.182-1.268,0.182-1.631,0.302c0,0-0.846-0.966-0.785-1.752c0.06-0.783,0.362-0.664,0.604-1.087s0.483-0.665,0.604-1.691
		s0.604-1.57,0.846-1.45c0.241,0.121,0.875-0.03,0.875-0.03s-1.751,0-0.15-0.815c0.651-0.331,1.268-0.423,1.631-0.905
		c0.362-0.483,1.026-1.391,0.665-2.899c-0.363-1.51-1.028-1.449-1.511-2.054c0,0,0.302-0.846,0-1.208
		c-0.302-0.363-1.027-0.302-1.269-0.242c-0.241,0.062-1.631-2.959-6.161-2.838c-3.335,0.089-4.953,1.69-5.194,2.294
		c-0.243,0.605-0.302,1.27-0.604,1.692c-0.301,0.423-0.241,1.026-0.301,1.449c-0.062,0.423-0.605,1.389-0.363,1.812
		s0.483,0.785,0.363,1.027c-0.121,0.241-1.058,1.181-1.118,1.39c-0.152,0.514,0.331,0.482,0.634,0.663
		c0.302,0.182,0,0.604,0.181,0.847c0.183,0.242,0.303,0.665,0.544,0.907c0.241,0.24-0.06,0.3,0.182,0.604
		c0.24,0.302,0.24,0.361,0.362,0.604c0.121,0.242-0.122,0.967,0.182,1.269c0.302,0.303,1.872,0.543,2.416,1.208
		c0.543,0.665,1.329,0.846,1.146,2.054c-0.131,0.874-0.15,0.635-0.15,0.635c-0.664,0.663-2.628,2.566-2.989,2.809
		c-0.363,0.241-0.544,0.302-0.967,0.363c-0.423,0.06-1.935,1.026-2.236,1.449c-0.029,0.041-0.06,0.1-0.092,0.169
		c-0.359-0.095-0.789-0.199-1.22-0.274c-0.772-0.136-1.004,0.117-1.088,0.452c-0.091,0.362,0.588,0.635,0.271,0.77
		c-0.316,0.137-0.361,0.771-0.361,0.771c-0.725,0.091-0.771,0.68-0.725,0.952c0.044,0.271,0.679,0.679,0.453,0.77
		c-0.228,0.09-0.409,0.407-0.318,0.589c0.091,0.181,0.86,0.629,0.86,0.629c-1.056,1.248-1.509,3.891-1.6,4.252
		c-0.09,0.362-0.339,0.874-0.383,1.6c-0.046,0.725-0.236,3.577-0.372,3.985c-0.137,0.408-0.589,1.856-0.181,2.672
		c0.407,0.816,0.905,2.267,0.95,2.763c0.038,0.416,0.864,1.129,1.145,1.359c-0.094,0.2-0.206,0.376-0.299,0.469
		c-0.241,0.241-1.087,1.873-1.268,2.898c-0.183,1.027-0.605,6.525-0.484,12.082c0.121,5.558,1.631,14.075,1.631,14.075
		s-0.543,1.569-0.543,1.812c0,0.241-0.786,11.054-0.846,12.141c-0.062,1.088-0.544,15.464-1.208,18.786c0,0,0.543,0.302,0.604,0.483
		c0.06,0.181-0.121,2.657-0.242,3.443C683.415,121.714,682.147,122.439,682.328,123.225z M690.302,117.97
		c0.181-0.786,0.785-3.745,1.025-4.953c0.242-1.209,0.787-5.075,1.088-5.799c0,0,0,0.936-0.007,2.006
		c-0.166,0.6-0.346,1.042-0.294,1.194c0.048,0.148,0.124,0.744,0.254,1.305c-0.004,0.125-0.008,0.235-0.013,0.326
		c-0.06,1.088,0.06,1.511,0.06,2.176c0,0.664,0.062,3.02-0.119,3.745c-0.182,0.724-0.907,1.57-1.632,2.295
		c-0.726,0.725-1.207,0.619-1.207,0.619S690.121,118.755,690.302,117.97z"/>
</g>
</svg>
