{
    "/vue.js": "/vue.js?id=7f90e55ecef5fea76871",
    "/js/app.js": "/js/app.js?id=3061b83d4715140a8ecb",
    "/css/styles.css": "/css/styles.css?id=396a73f6d7c64c011d59",
    "/css/app.css": "/css/app.css?id=138ac0ce28b1821d36a0",
    "/front/app.js": "/front/app.js?id=f484483827f6efe993c4",
    "/css/custom.css": "/css/custom.css?id=2dad3fe3fa6fffc31041"
}
