<?xml version="1.0" standalone="no"?>
<!DOCTYPE svg PUBLIC "-//W3C//DTD SVG 1.1//EN" "http://www.w3.org/Graphics/SVG/1.1/DTD/svg11.dtd" >
<svg xmlns="http://www.w3.org/2000/svg">
<metadata>Generated by IcoMoon</metadata>
<defs>
<font id="icomoon" horiz-adv-x="1024">
<font-face units-per-em="1024" ascent="960" descent="-64" />
<missing-glyph horiz-adv-x="1024" />
<glyph unicode="&#x20;" horiz-adv-x="512" d="" />
<glyph unicode="&#xe023;" glyph-name="hearing" d="M490 554.667c0 58 50 106 108 106s106-48 106-106-48-106-106-106-108 48-108 106zM326 826.667c-70-70-112-166-112-272s42-202 112-272l-60-60c-84 84-138 202-138 332s54 248 138 332zM726 84.667c46 0 84 40 84 86h86c0-94-76-170-170-170-24 0-48 4-70 14-58 30-92 74-118 152-14 42-38 62-72 88-38 28-84 64-122 134-30 54-46 112-46 166 0 168 132 298 300 298s298-130 298-298h-86c0 120-92 214-212 214s-214-94-214-214c0-40 12-86 34-126 30-56 66-82 100-108 40-30 80-62 102-128 22-64 42-84 72-100 8-4 22-8 34-8z" />
<glyph unicode="&#xe037;" glyph-name="play_arrow" d="M342 724.667l468-298-468-298v596z" />
<glyph unicode="&#xe038;" glyph-name="play_circle_filled" d="M426 234.667l256 192-256 192v-384zM512 852.667c236 0 426-190 426-426s-190-426-426-426-426 190-426 426 190 426 426 426z" />
<glyph unicode="&#xe039;" glyph-name="play_circle_outline" d="M512 84.667c188 0 342 154 342 342s-154 342-342 342-342-154-342-342 154-342 342-342zM512 852.667c236 0 426-190 426-426s-190-426-426-426-426 190-426 426 190 426 426 426zM426 234.667v384l256-192z" />
<glyph unicode="&#xe04b;" glyph-name="videocam" d="M726 490.667l170 170v-468l-170 170v-150c0-24-20-42-44-42h-512c-24 0-42 18-42 42v428c0 24 18 42 42 42h512c24 0 44-18 44-42v-150z" />
<glyph unicode="&#xe04c;" glyph-name="videocam_off" d="M140 852.667l756-756-54-54-136 136c-6-4-16-8-24-8h-512c-24 0-42 18-42 42v428c0 24 18 42 42 42h32l-116 116zM896 660.667v-456l-478 478h264c24 0 44-18 44-42v-150z" />
<glyph unicode="&#xe04d;" glyph-name="volume_down" d="M214 554.667h170l214 214v-684l-214 214h-170v256zM790 426.667c0-76-44-140-108-172v344c64-32 108-96 108-172z" />
<glyph unicode="&#xe04e;" glyph-name="volume_mute" d="M298 554.667h172l212 214v-684l-212 214h-172v256z" />
<glyph unicode="&#xe04f;" glyph-name="volume_off" d="M512 768.667v-180l-90 90zM182 810.667l714-714-54-54-88 88c-46-36-98-64-156-78v88c36 10 68 28 96 50l-182 182v-288l-214 214h-170v256h202l-202 202zM810 426.667c0 136-88 250-212 286v88c172-38 298-192 298-374 0-64-16-126-44-178l-64 66c14 34 22 72 22 112zM704 426.667c0-10 0-18-2-26l-104 104v94c64-32 106-96 106-172z" />
<glyph unicode="&#xe050;" glyph-name="volume_up" d="M598 800.667c172-38 298-192 298-374s-126-336-298-374v88c124 36 212 150 212 286s-88 250-212 286v88zM704 426.667c0-76-42-140-106-172v344c64-32 106-96 106-172zM128 554.667h170l214 214v-684l-214 214h-170v256z" />
<glyph unicode="&#xe0cd;" glyph-name="phone" d="M282 478.667c62-120 162-220 282-282l94 94c12 12 30 16 44 10 48-16 100-24 152-24 24 0 42-18 42-42v-150c0-24-18-42-42-42-400 0-726 326-726 726 0 24 18 42 42 42h150c24 0 42-18 42-42 0-54 8-104 24-152 4-14 2-32-10-44z" />
<glyph unicode="&#xe14f;" glyph-name="content_paste" d="M810 84.667v684h-84v-128h-428v128h-84v-684h596zM512 852.667c-24 0-42-18-42-42s18-42 42-42 42 18 42 42-18 42-42 42zM810 852.667c46 0 86-38 86-84v-684c0-46-40-84-86-84h-596c-46 0-86 38-86 84v684c0 46 40 84 86 84h178c18 50 64 86 120 86s102-36 120-86h178z" />
<glyph unicode="&#xe159;" glyph-name="markunread" d="M854 596.667v86l-342-214-342 214v-86l342-212zM854 768.667c46 0 84-40 84-86v-512c0-46-38-86-84-86h-684c-46 0-84 40-84 86v512c0 46 38 86 84 86h684z" />
<glyph unicode="&#xe226;" glyph-name="attach_file" d="M704 682.667h64v-490c0-130-104-236-234-236s-236 106-236 236v532c0 94 78 172 172 172s170-78 170-172v-448c0-58-48-106-106-106s-108 48-108 106v406h64v-406c0-24 20-42 44-42s42 18 42 42v448c0 58-48 108-106 108s-108-50-108-108v-532c0-94 78-172 172-172s170 78 170 172v490z" />
<glyph unicode="&#xe22b;" glyph-name="border_color" d="M0 84.667h1024v-170h-1024v170zM884 766.667l-84-84-160 160 84 84c16 16 44 16 60 0l100-100c16-16 16-44 0-60zM758 640.667l-428-428h-160v160l428 428z" />
<glyph unicode="&#xe24f;" glyph-name="insert_invitation" d="M810 128.667v468h-596v-468h596zM682 896.667h86v-86h42c46 0 86-40 86-86v-596c0-46-40-86-86-86h-596c-48 0-86 40-86 86v596c0 46 38 86 86 86h42v86h86v-86h340v86zM726 426.667v-214h-214v214h214z" />
<glyph unicode="&#xe254;" glyph-name="mode_edit" d="M884 638.667l-78-78-160 160 78 78c16 16 44 16 60 0l100-100c16-16 16-44 0-60zM128 202.667l472 472 160-160-472-472h-160v160z" />
<glyph unicode="&#xe2be;" glyph-name="cloud_circle" d="M704 256.667c58 0 106 48 106 106s-48 106-106 106h-22c0 94-76 172-170 172-80 0-146-56-164-130l-6 2c-70 0-128-58-128-128s58-128 128-128h362zM512 852.667c236 0 426-190 426-426s-190-426-426-426-426 190-426 426 190 426 426 426z" />
<glyph unicode="&#xe2bf;" glyph-name="cloud_done" d="M426 212.667l282 282-60 60-222-220-88 88-60-60zM826 510.667c110-8 198-100 198-212 0-118-96-214-214-214h-554c-142 0-256 114-256 256 0 132 100 240 228 254 54 102 160 174 284 174 156 0 284-110 314-258z" />
<glyph unicode="&#xe2c0;" glyph-name="cloud_download" d="M726 384.667h-128v170h-172v-170h-128l214-214zM826 510.667c110-8 198-100 198-212 0-118-96-214-214-214h-554c-142 0-256 114-256 256 0 132 100 240 228 254 54 102 160 174 284 174 156 0 284-110 314-258z" />
<glyph unicode="&#xe2c3;" glyph-name="cloud_upload" d="M598 384.667h128l-214 212-214-212h128v-172h172v172zM826 510.667c110-8 198-100 198-212 0-118-96-214-214-214h-554c-142 0-256 114-256 256 0 132 100 240 228 254 54 102 160 174 284 174 156 0 284-110 314-258z" />
<glyph unicode="&#xe2cc;" glyph-name="create_new_folder" d="M810 340.667v86h-128v128h-84v-128h-128v-86h128v-128h84v128h128zM854 682.667c48 0 84-38 84-86v-426c0-48-36-86-84-86h-684c-48 0-84 38-84 86v512c0 48 36 86 84 86h256l86-86h342z" />
<glyph unicode="&#xe310;" glyph-name="headset" d="M512 896.667c212 0 384-172 384-384v-300c0-70-58-128-128-128h-128v342h170v86c0 166-132 298-298 298s-298-132-298-298v-86h170v-342h-128c-70 0-128 58-128 128v300c0 212 172 384 384 384z" />
<glyph unicode="&#xe311;" glyph-name="headset_mic" d="M512 896.667c212 0 384-172 384-384v-428c0-70-58-128-128-128h-256v86h298v42h-170v342h170v86c0 166-132 298-298 298s-298-132-298-298v-86h170v-342h-128c-70 0-128 58-128 128v300c0 212 172 384 384 384z" />
<glyph unicode="&#xe313;" glyph-name="keyboard_arrow_down" d="M316 604.667l196-196 196 196 60-60-256-256-256 256z" />
<glyph unicode="&#xe314;" glyph-name="keyboard_arrow_left" d="M658 252.667l-60-60-256 256 256 256 60-60-196-196z" />
<glyph unicode="&#xe315;" glyph-name="keyboard_arrow_right" d="M366 240.667l196 196-196 196 60 60 256-256-256-256z" />
<glyph unicode="&#xe316;" glyph-name="keyboard_arrow_up" d="M316 280.667l-60 60 256 256 256-256-60-60-196 196z" />
<glyph unicode="&#xe317;" glyph-name="keyboard_backspace" d="M896 468.667v-84h-604l152-154-60-60-256 256 256 256 60-60-152-154h604z" />
<glyph unicode="&#xe31d;" glyph-name="keyboard_voice" d="M738 426.667h72c0-146-116-266-256-286v-140h-84v140c-140 20-256 140-256 286h72c0-128 108-218 226-218s226 90 226 218zM512 298.667c-70 0-128 58-128 128v256c0 70 58 128 128 128s128-58 128-128v-256c0-70-58-128-128-128z" />
<glyph unicode="&#xe408;" glyph-name="navigate_before" d="M658 622.667l-196-196 196-196-60-60-256 256 256 256z" />
<glyph unicode="&#xe409;" glyph-name="navigate_next" d="M426 682.667l256-256-256-256-60 60 196 196-196 196z" />
<glyph unicode="&#xe413;" glyph-name="photo_library" d="M86 682.667h84v-598h598v-84h-598c-46 0-84 38-84 84v598zM470 426.667l-128-170h512l-172 212-126-158zM938 256.667c0-46-38-86-84-86h-512c-46 0-86 40-86 86v512c0 46 40 84 86 84h512c46 0 84-38 84-84v-512z" />
<glyph unicode="&#xe419;" glyph-name="rotate_left" d="M554 764.667c168-20 300-164 300-338s-132-318-300-338v86c122 20 214 126 214 252s-92 232-214 252v-166l-194 190 194 194v-132zM302 156.667l62 62c32-24 68-38 106-44v-86c-60 8-118 30-168 68zM260 384.667c6-38 20-74 42-106l-60-60c-38 50-60 106-68 166h86zM304 574.667c-22-32-38-68-44-106h-86c8 60 32 116 70 166z" />
<glyph unicode="&#xe41a;" glyph-name="rotate_right" d="M720 278.667c24 32 38 68 44 106h86c-8-60-30-116-68-166zM554 174.667c38 6 74 20 106 44l62-62c-50-38-108-60-168-68v86zM850 468.667h-86c-6 38-20 74-44 106l62 60c38-50 60-106 68-166zM664 702.667l-194-190v166c-122-20-214-126-214-252s92-232 214-252v-86c-168 20-300 164-300 338s132 318 300 338v132z" />
<glyph unicode="&#xe431;" glyph-name="collections_bookmark" d="M854 426.667v342h-214v-342l106 64zM854 852.667c46 0 84-38 84-84v-512c0-46-38-86-84-86h-512c-46 0-86 40-86 86v512c0 46 40 84 86 84h512zM170 682.667v-598h598v-84h-598c-46 0-84 38-84 84v598h84z" />
<glyph unicode="&#xe432;" glyph-name="photo_size_select_actual" d="M214 212.667h596l-192 256-148-192-108 128zM896 810.667c42 0 86-44 86-86v-596c0-42-44-86-86-86h-768c-46 0-86 40-86 86v596c0 42 44 86 86 86h768z" />
<glyph unicode="&#xe55c;" glyph-name="my_location" d="M512 128.667c166 0 298 132 298 298s-132 298-298 298-298-132-298-298 132-298 298-298zM894 468.667h88v-84h-88c-20-178-162-320-340-340v-88h-84v88c-178 20-320 162-340 340h-88v84h88c20 178 162 320 340 340v88h84v-88c178-20 320-162 340-340zM512 596.667c94 0 170-76 170-170s-76-170-170-170-170 76-170 170 76 170 170 170z" />
<glyph unicode="&#xe55e;" glyph-name="pin_drop" d="M214 84.667h596v-84h-596v84zM426 596.667c0-46 40-84 86-84 48 0 86 38 86 84s-40 86-86 86-86-40-86-86zM768 596.667c0-192-256-468-256-468s-256 276-256 468c0 142 114 256 256 256s256-114 256-256z" />
<glyph unicode="&#xe568;" glyph-name="edit_location" d="M636 616.667c6 6 6 16 0 22l-40 40c-6 6-16 6-22 0l-30-30 62-62zM446 426.667l142 142-62 62-142-142v-62h62zM512 852.667c164 0 298-134 298-298 0-224-298-554-298-554s-298 330-298 554c0 164 134 298 298 298z" />
<glyph unicode="&#xe56b;" glyph-name="zoom_out_map" d="M896 298.667v-256h-256l98 98-124 122 62 62 122-124zM384 42.667h-256v256l98-98 122 124 62-62-124-122zM128 554.667v256h256l-98-98 124-122-62-62-122 124zM640 810.667h256v-256l-98 98-122-124-62 62 124 122z" />
<glyph unicode="&#xe5c3;" glyph-name="apps" d="M682 84.667v172h172v-172h-172zM682 340.667v172h172v-172h-172zM426 596.667v172h172v-172h-172zM682 768.667h172v-172h-172v172zM426 340.667v172h172v-172h-172zM170 340.667v172h172v-172h-172zM170 84.667v172h172v-172h-172zM426 84.667v172h172v-172h-172zM170 596.667v172h172v-172h-172z" />
<glyph unicode="&#xe5c5;" glyph-name="arrow_drop_down" d="M298 512.667h428l-214-214z" />
<glyph unicode="&#xe5c7;" glyph-name="arrow_drop_up" d="M298 340.667l214 214 214-214h-428z" />
<glyph unicode="&#xe5c8;" glyph-name="arrow_forward" d="M512 768.667l342-342-342-342-60 60 238 240h-520v84h520l-238 240z" />
<glyph unicode="&#xe5c9;" glyph-name="cancel" d="M726 272.667l-154 154 154 154-60 60-154-154-154 154-60-60 154-154-154-154 60-60 154 154 154-154zM512 852.667c236 0 426-190 426-426s-190-426-426-426-426 190-426 426 190 426 426 426z" />
<glyph unicode="&#xe5ca;" glyph-name="check" d="M384 248.667l452 452 60-60-512-512-238 238 60 60z" />
<glyph unicode="&#xe5cd;" glyph-name="close" d="M810 664.667l-238-238 238-238-60-60-238 238-238-238-60 60 238 238-238 238 60 60 238-238 238 238z" />
<glyph unicode="&#xe5d8;" glyph-name="arrow_upward" d="M170 426.667l342 342 342-342-62-60-238 238v-520h-84v520l-240-238z" />
<glyph unicode="&#xe5db;" glyph-name="arrow_downward" d="M854 426.667l-342-342-342 342 62 60 238-238v520h84v-520l240 238z" />
<glyph unicode="&#xe614;" glyph-name="event_available" d="M810 128.667v468h-596v-468h596zM810 810.667c46 0 86-40 86-86v-596c0-46-40-86-86-86h-596c-48 0-86 40-86 86v596c0 46 38 86 86 86h42v86h86v-86h340v86h86v-86h42zM706 466.667l-254-254-136 136 46 46 90-90 208 208z" />
<glyph unicode="&#xe615;" glyph-name="event_busy" d="M810 128.667v468h-596v-468h596zM810 810.667c46 0 86-40 86-86v-596c0-46-40-86-86-86h-596c-48 0-86 40-86 86v596c0 46 38 86 86 86h42v86h86v-86h340v86h86v-86h42zM398 212.667l-46 46 104 104-104 104 46 46 104-104 104 104 44-46-104-104 104-104-44-46-104 104z" />
<glyph unicode="&#xe616;" glyph-name="event_note" d="M598 340.667v-84h-300v84h300zM810 128.667v468h-596v-468h596zM810 810.667c46 0 86-40 86-86v-596c0-46-40-86-86-86h-596c-48 0-86 40-86 86v596c0 46 38 86 86 86h42v86h86v-86h340v86h86v-86h42zM726 512.667v-86h-428v86h428z" />
<glyph unicode="&#xe7f0;" glyph-name="group_add" d="M554 384.667c86 0 256-42 256-128v-86h-512v86c0 86 170 128 256 128zM838 376.667c86-14 186-54 186-120v-86h-128v86c0 50-22 88-58 120zM554 468.667c-70 0-128 58-128 128s58 128 128 128 128-58 128-128-58-128-128-128zM768 468.667c-14 0-26 2-38 6 24 34 38 76 38 122s-14 88-38 122c12 4 24 6 38 6 70 0 128-58 128-128s-58-128-128-128zM342 512.667v-86h-128v-128h-86v128h-128v86h128v128h86v-128h128z" />
<glyph unicode="&#xe7fb;" glyph-name="people" d="M682 384.667c100 0 300-50 300-150v-106h-256v106c0 64-34 112-84 148 14 2 28 2 40 2zM342 384.667c100 0 298-50 298-150v-106h-598v106c0 100 200 150 300 150zM342 468.667c-70 0-128 58-128 128s58 128 128 128 126-58 126-128-56-128-126-128zM682 468.667c-70 0-128 58-128 128s58 128 128 128 128-58 128-128-58-128-128-128z" />
<glyph unicode="&#xe801;" glyph-name="poll" d="M726 212.667v172h-86v-172h86zM554 212.667v428h-84v-428h84zM384 212.667v300h-86v-300h86zM810 810.667c46 0 86-40 86-86v-596c0-46-40-86-86-86h-596c-46 0-86 40-86 86v596c0 46 40 86 86 86h596z" />
<glyph unicode="&#xe811;" glyph-name="sentiment_dissatisfied" d="M512 340.667c100 0 184-60 218-148h-70c-30 50-84 84-148 84s-118-34-148-84h-70c34 88 118 148 218 148zM512 84.667c188 0 342 154 342 342s-154 342-342 342-342-154-342-342 154-342 342-342zM512 852.667c236 0 426-190 426-426s-190-426-426-426-426 190-426 426 190 426 426 426zM298 532.667c0 36 28 64 64 64s64-28 64-64-28-64-64-64-64 28-64 64zM598 532.667c0 36 28 64 64 64s64-28 64-64-28-64-64-64-64 28-64 64z" />
<glyph unicode="&#xe812;" glyph-name="sentiment_neutral" d="M512 84.667c188 0 342 154 342 342s-154 342-342 342-342-154-342-342 154-342 342-342zM512 852.667c236 0 426-190 426-426s-190-426-426-426-426 190-426 426 190 426 426 426zM298 532.667c0 36 28 64 64 64s64-28 64-64-28-64-64-64-64 28-64 64zM598 532.667c0 36 28 64 64 64s64-28 64-64-28-64-64-64-64 28-64 64zM384 340.667h256v-64h-256v64z" />
<glyph unicode="&#xe813;" glyph-name="sentiment_satisfied" d="M512 256.667c64 0 118 34 148 84h70c-34-88-118-148-218-148s-184 60-218 148h70c30-50 84-84 148-84zM512 84.667c188 0 342 154 342 342s-154 342-342 342-342-154-342-342 154-342 342-342zM512 852.667c236 0 426-190 426-426s-190-426-426-426-426 190-426 426 190 426 426 426zM298 532.667c0 36 28 64 64 64s64-28 64-64-28-64-64-64-64 28-64 64zM598 532.667c0 36 28 64 64 64s64-28 64-64-28-64-64-64-64 28-64 64z" />
<glyph unicode="&#xe814;" glyph-name="sentiment_very_dissatisfied" d="M512 340.667c100 0 184-60 218-148h-436c34 88 118 148 218 148zM334 426.667l-46 46 46 44-46 46 46 44 44-44 46 44 46-44-46-46 46-44-46-46-46 46zM690 606.667l46-44-46-46 46-44-46-46-44 46-46-46-46 46 46 44-46 46 46 44 46-44zM512 84.667c188 0 342 154 342 342s-154 342-342 342-342-154-342-342 154-342 342-342zM512 852.667c236 0 426-190 426-426s-190-426-426-426-426 190-426 426 190 426 426 426z" />
<glyph unicode="&#xe815;" glyph-name="sentiment_very_satisfied" d="M512 192.667c-100 0-184 60-218 148h436c-34-88-118-148-218-148zM378 514.667l-44-46-46 46 90 90 92-90-46-46zM554 514.667l92 90 90-90-46-46-44 46-46-46zM512 84.667c188 0 342 154 342 342s-154 342-342 342-342-154-342-342 154-342 342-342zM512 852.667c236 0 426-190 426-426s-190-426-426-426-426 190-426 426 190 426 426 426z" />
<glyph unicode="&#xe834;" glyph-name="check_box" d="M426 212.667l384 384-60 62-324-324-152 152-60-60zM810 810.667c48 0 86-40 86-86v-596c0-46-38-86-86-86h-596c-48 0-86 40-86 86v596c0 46 38 86 86 86h596z" />
<glyph unicode="&#xe859;" glyph-name="android" d="M640 724.667v44h-42v-44h42zM426 724.667v44h-42v-44h42zM662 846.667c64-46 106-122 106-206h-512c0 84 40 160 104 206l-56 56c-8 8-8 22 0 30s22 8 30 0l64-64c34 18 74 28 114 28s78-10 112-28l64 64c8 8 22 8 30 0s8-22 0-30zM874 596.667c36 0 64-28 64-64v-298c0-36-28-64-64-64s-64 28-64 64v298c0 36 28 64 64 64zM150 596.667c36 0 64-28 64-64v-298c0-36-28-64-64-64s-64 28-64 64v298c0 36 28 64 64 64zM256 170.667v426h512v-426c0-24-18-42-42-42h-44v-150c0-36-28-64-64-64s-64 28-64 64v150h-84v-150c0-36-28-64-64-64s-64 28-64 64v150h-44c-24 0-42 18-42 42z" />
<glyph unicode="&#xe85b;" glyph-name="aspect_ratio" d="M896 126.667v600h-768v-600h768zM896 810.667c46 0 86-40 86-86v-596c0-46-40-86-86-86h-768c-46 0-86 40-86 86v596c0 46 40 86 86 86h768zM298 554.667v-128h-84v214h212v-86h-128zM810 426.667v-214h-212v86h128v128h84z" />
<glyph unicode="&#xe85d;" glyph-name="assignment" d="M726 554.667v86h-428v-86h428zM726 384.667v84h-428v-84h428zM598 212.667v86h-300v-86h300zM512 810.667c-24 0-42-18-42-42s18-44 42-44 42 20 42 44-18 42-42 42zM810 810.667c46 0 86-40 86-86v-596c0-46-40-86-86-86h-596c-46 0-86 40-86 86v596c0 46 40 86 86 86h178c18 50 64 86 120 86s102-36 120-86h178z" />
<glyph unicode="&#xe85e;" glyph-name="assignment_ind" d="M768 128.667v60c0 86-170 132-256 132s-256-46-256-132v-60h512zM512 640.667c-70 0-128-58-128-128s58-128 128-128 128 58 128 128-58 128-128 128zM512 810.667c-24 0-42-18-42-42s18-44 42-44 42 20 42 44-18 42-42 42zM810 810.667c46 0 86-40 86-86v-596c0-46-40-86-86-86h-596c-46 0-86 40-86 86v596c0 46 40 86 86 86h178c18 50 64 86 120 86s102-36 120-86h178z" />
<glyph unicode="&#xe869;" glyph-name="build" d="M968 128.667c18-12 18-42-4-60l-98-98c-18-18-42-18-60 0l-388 388c-98-38-212-18-294 64-86 86-108 214-56 316l188-184 128 128-184 184c102 46 230 30 316-56 82-82 102-196 64-294z" />
<glyph unicode="&#xe86a;" glyph-name="cached" d="M256 426.667h128l-170-170-172 170h128c0 188 154 342 342 342 66 0 130-20 182-54l-62-62c-36 20-76 30-120 30-142 0-256-114-256-256zM810 596.667l172-170h-128c0-188-154-342-342-342-66 0-130 20-182 54l62 62c36-20 76-30 120-30 142 0 256 114 256 256h-128z" />
<glyph unicode="&#xe86b;" glyph-name="change_history" d="M512 768.667l426-684h-852zM512 606.667l-272-436h544z" />
<glyph unicode="&#xe86c;" glyph-name="check_circle" d="M426 212.667l384 384-60 62-324-324-152 152-60-60zM512 852.667c236 0 426-190 426-426s-190-426-426-426-426 190-426 426 190 426 426 426z" />
<glyph unicode="&#xe876;" glyph-name="done" d="M384 246.667l452 454 60-60-512-512-238 238 58 60z" />
<glyph unicode="&#xe877;" glyph-name="done_all" d="M18 366.667l60 60 238-238-60-60zM948 700.667l62-60-512-512-240 238 62 60 178-178zM768 640.667l-270-272-60 60 270 272z" />
<glyph unicode="&#xe87d;" glyph-name="favorite" d="M512 28.667l-62 56c-220 200-364 330-364 492 0 132 102 234 234 234 74 0 146-36 192-90 46 54 118 90 192 90 132 0 234-102 234-234 0-162-144-294-364-494z" />
<glyph unicode="&#xe87e;" glyph-name="favorite_border" d="M516 146.667c204 184 338 306 338 430 0 86-64 148-150 148-66 0-130-42-152-100h-80c-22 58-86 100-152 100-86 0-150-62-150-148 0-124 134-246 338-430l4-4zM704 810.667c132 0 234-102 234-234 0-162-144-292-364-492l-62-56-62 54c-220 200-364 332-364 494 0 132 102 234 234 234 74 0 146-36 192-90 46 54 118 90 192 90z" />
<glyph unicode="&#xe887;" glyph-name="help" d="M642 458.667c24 24 40 58 40 96 0 94-76 170-170 170s-170-76-170-170h84c0 46 40 86 86 86s86-40 86-86c0-24-10-44-26-60l-52-54c-30-32-50-74-50-120v-22h84c0 64 20 88 50 120zM554 128.667v84h-84v-84h84zM512 852.667c236 0 426-190 426-426s-190-426-426-426-426 190-426 426 190 426 426 426z" />
<glyph unicode="&#xe888;" glyph-name="highlight_off" d="M512 84.667c188 0 342 154 342 342s-154 342-342 342-342-154-342-342 154-342 342-342zM512 852.667c236 0 426-190 426-426s-190-426-426-426-426 190-426 426 190 426 426 426zM622 596.667l60-60-110-110 110-110-60-60-110 110-110-110-60 60 110 110-110 110 60 60 110-110z" />
<glyph unicode="&#xe8ac;" glyph-name="power_settings_new" d="M760 718.667c82-70 136-176 136-292 0-212-172-384-384-384s-384 172-384 384c0 116 54 222 136 292l60-60c-66-54-110-138-110-232 0-166 132-298 298-298s298 132 298 298c0 94-42 176-110 230zM554 810.667v-426h-84v426h84z" />
<glyph unicode="&#xe8e8;" glyph-name="verified_user" d="M426 212.667l342 342-60 60-282-280-110 110-60-60zM512 896.667l384-172v-256c0-236-164-458-384-512-220 54-384 276-384 512v256z" />
<glyph unicode="&#xe8ee;" glyph-name="view_headline" d="M170 724.667h684v-84h-684v84zM170 468.667v86h684v-86h-684zM170 128.667v84h684v-84h-684zM170 298.667v86h684v-86h-684z" />
<glyph unicode="&#xe8ef;" glyph-name="view_list" d="M384 724.667h512v-170h-512v170zM384 128.667v170h512v-170h-512zM384 340.667v172h512v-172h-512zM170 554.667v170h172v-170h-172zM170 128.667v170h172v-170h-172zM170 340.667v172h172v-172h-172z" />
<glyph unicode="&#xe8f0;" glyph-name="view_module" d="M682 724.667h214v-256h-214v256zM426 468.667v256h214v-256h-214zM682 170.667v256h214v-256h-214zM426 170.667v256h214v-256h-214zM170 170.667v256h214v-256h-214zM170 468.667v256h214v-256h-214z" />
<glyph unicode="&#xe8fd;" glyph-name="help_outline" d="M512 682.667c94 0 170-76 170-170 0-106-128-118-128-214h-84c0 138 128 128 128 214 0 46-40 84-86 84s-86-38-86-84h-84c0 94 76 170 170 170zM512 84.667c188 0 342 154 342 342s-154 342-342 342-342-154-342-342 154-342 342-342zM512 852.667c236 0 426-190 426-426s-190-426-426-426-426 190-426 426 190 426 426 426zM470 170.667v86h84v-86h-84z" />
<glyph unicode="&#xe900;" glyph-name="star_border" d="M512 280.667l160-96-42 182 142 124-188 16-72 172-72-172-188-16 142-124-42-182zM938 544.667l-232-202 70-300-264 160-264-160 70 300-232 202 306 26 120 282 120-282z" />
<glyph unicode="&#xe901;" glyph-name="add" d="M810 384.667h-256v-256h-84v256h-256v84h256v256h84v-256h256v-84z" />
<glyph unicode="&#xe902;" glyph-name="upload" d="M896 341.334c-25.6 0-42.667-17.067-42.667-42.667v-170.667c0-25.6-17.067-42.667-42.667-42.667h-597.333c-25.6 0-42.667 17.067-42.667 42.667v170.667c0 25.6-17.067 42.667-42.667 42.667s-42.667-17.067-42.667-42.667v-170.667c0-72.533 55.467-128 128-128h597.333c72.533 0 128 55.467 128 128v170.667c0 25.6-17.067 42.667-42.667 42.667zM328.533 567.467l140.8 140.8v-409.6c0-25.6 17.067-42.667 42.667-42.667s42.667 17.067 42.667 42.667v409.6l140.8-140.8c8.533-8.533 17.067-12.8 29.867-12.8s21.333 4.267 29.867 12.8c17.067 17.067 17.067 42.667 0 59.733l-213.333 213.333c-4.267 4.267-8.533 8.533-12.8 8.533-8.533 4.267-21.333 4.267-34.133 0-4.267-4.267-8.533-4.267-12.8-8.533l-213.333-213.333c-17.067-17.067-17.067-42.667 0-59.733s42.667-17.067 59.733 0z" />
<glyph unicode="&#xe90d;" glyph-name="image" d="M959.884 832c0.040-0.034 0.082-0.076 0.116-0.116v-767.77c-0.034-0.040-0.076-0.082-0.116-0.116h-895.77c-0.040 0.034-0.082 0.076-0.114 0.116v767.772c0.034 0.040 0.076 0.082 0.114 0.114h895.77zM960 896h-896c-35.2 0-64-28.8-64-64v-768c0-35.2 28.8-64 64-64h896c35.2 0 64 28.8 64 64v768c0 35.2-28.8 64-64 64v0zM832 672c0-53.020-42.98-96-96-96s-96 42.98-96 96 42.98 96 96 96 96-42.98 96-96zM896 128h-768v128l224 384 256-320h64l224 192z" />
<glyph unicode="&#xe99d;" glyph-name="stats-bars2" d="M288 576h-192c-17.6 0-32-14.4-32-32v-576c0-17.6 14.4-32 32-32h192c17.6 0 32 14.4 32 32v576c0 17.6-14.4 32-32 32zM288 0h-192v256h192v-256zM608 704h-192c-17.6 0-32-14.4-32-32v-704c0-17.6 14.4-32 32-32h192c17.6 0 32 14.4 32 32v704c0 17.6-14.4 32-32 32zM608 0h-192v320h192v-320zM928 832h-192c-17.6 0-32-14.4-32-32v-832c0-17.6 14.4-32 32-32h192c17.6 0 32 14.4 32 32v832c0 17.6-14.4 32-32 32zM928 0h-192v384h192v-384z" />
<glyph unicode="&#xea0d;" glyph-name="cancel-circle" d="M512 960c-282.77 0-512-229.23-512-512s229.23-512 512-512 512 229.23 512 512-229.23 512-512 512zM512 32c-229.75 0-416 186.25-416 416s186.25 416 416 416 416-186.25 416-416-186.25-416-416-416zM672 704l-160-160-160 160-96-96 160-160-160-160 96-96 160 160 160-160 96 96-160 160 160 160z" />
<glyph unicode="&#xeb44;" glyph-name="free_breakfast" d="M170 128.667h684v-86h-684v86zM854 596.667v128h-86v-128h86zM854 810.667c48 0 84-38 84-86v-128c0-46-36-84-84-84h-86v-128c0-94-76-172-170-172h-256c-94 0-172 78-172 172v426h684z" />
<glyph unicode="&#xf067;" glyph-name="plus" horiz-adv-x="805" d="M804.571 530.286v-109.714c0-30.286-24.571-54.857-54.857-54.857h-237.714v-237.714c0-30.286-24.571-54.857-54.857-54.857h-109.714c-30.286 0-54.857 24.571-54.857 54.857v237.714h-237.714c-30.286 0-54.857 24.571-54.857 54.857v109.714c0 30.286 24.571 54.857 54.857 54.857h237.714v237.714c0 30.286 24.571 54.857 54.857 54.857h109.714c30.286 0 54.857-24.571 54.857-54.857v-237.714h237.714c30.286 0 54.857-24.571 54.857-54.857z" />
<glyph unicode="&#xf068;" glyph-name="minus" horiz-adv-x="805" d="M804.571 530.286v-109.714c0-30.286-24.571-54.857-54.857-54.857h-694.857c-30.286 0-54.857 24.571-54.857 54.857v109.714c0 30.286 24.571 54.857 54.857 54.857h694.857c30.286 0 54.857-24.571 54.857-54.857z" />
<glyph unicode="&#xf0fe;" glyph-name="plus-square" horiz-adv-x="878" d="M731.429 402.286v73.143c0 20-16.571 36.571-36.571 36.571h-182.857v182.857c0 20-16.571 36.571-36.571 36.571h-73.143c-20 0-36.571-16.571-36.571-36.571v-182.857h-182.857c-20 0-36.571-16.571-36.571-36.571v-73.143c0-20 16.571-36.571 36.571-36.571h182.857v-182.857c0-20 16.571-36.571 36.571-36.571h73.143c20 0 36.571 16.571 36.571 36.571v182.857h182.857c20 0 36.571 16.571 36.571 36.571zM877.714 713.143v-548.571c0-90.857-73.714-164.571-164.571-164.571h-548.571c-90.857 0-164.571 73.714-164.571 164.571v548.571c0 90.857 73.714 164.571 164.571 164.571h548.571c90.857 0 164.571-73.714 164.571-164.571z" />
<glyph unicode="&#xf146;" glyph-name="minus-square" horiz-adv-x="878" d="M731.429 402.286v73.143c0 20-16.571 36.571-36.571 36.571h-512c-20 0-36.571-16.571-36.571-36.571v-73.143c0-20 16.571-36.571 36.571-36.571h512c20 0 36.571 16.571 36.571 36.571zM877.714 713.143v-548.571c0-90.857-73.714-164.571-164.571-164.571h-548.571c-90.857 0-164.571 73.714-164.571 164.571v548.571c0 90.857 73.714 164.571 164.571 164.571h548.571c90.857 0 164.571-73.714 164.571-164.571z" />
</font></defs></svg>